Washing_Machine_FPGA/Blocks_PRO_MAX/LED_dot_matrix/simulation/qsim/LED_dot_matrix.msim.vcd
$comment
	File created using the following command:
		vcd file LED_dot_matrix.msim.vcd -direction
$end
$date
	Wed Jan 12 01:47:42 2022
$end
$version
	ModelSim Version 10.1d
$end
$timescale
	1ps
$end
$scope module LED_dot_matrix_vlg_vec_tst $end
$var reg 1 ! clk $end
$var reg 1 " clr $end
$var reg 1 # rst $end
$var reg 1 $ second $end
$var reg 3 % state [2:0] $end
$var wire 1 & H [15] $end
$var wire 1 ' H [14] $end
$var wire 1 ( H [13] $end
$var wire 1 ) H [12] $end
$var wire 1 * H [11] $end
$var wire 1 + H [10] $end
$var wire 1 , H [9] $end
$var wire 1 - H [8] $end
$var wire 1 . H [7] $end
$var wire 1 / H [6] $end
$var wire 1 0 H [5] $end
$var wire 1 1 H [4] $end
$var wire 1 2 H [3] $end
$var wire 1 3 H [2] $end
$var wire 1 4 H [1] $end
$var wire 1 5 H [0] $end
$var wire 1 6 L [15] $end
$var wire 1 7 L [14] $end
$var wire 1 8 L [13] $end
$var wire 1 9 L [12] $end
$var wire 1 : L [11] $end
$var wire 1 ; L [10] $end
$var wire 1 < L [9] $end
$var wire 1 = L [8] $end
$var wire 1 > L [7] $end
$var wire 1 ? L [6] $end
$var wire 1 @ L [5] $end
$var wire 1 A L [4] $end
$var wire 1 B L [3] $end
$var wire 1 C L [2] $end
$var wire 1 D L [1] $end
$var wire 1 E L [0] $end
$var wire 1 F sampler $end
$scope module i1 $end
$var wire 1 G gnd $end
$var wire 1 H vcc $end
$var wire 1 I unknown $end
$var tri1 1 J devclrn $end
$var tri1 1 K devpor $end
$var tri1 1 L devoe $end
$var wire 1 M H[0]~output_o $end
$var wire 1 N H[1]~output_o $end
$var wire 1 O H[2]~output_o $end
$var wire 1 P H[3]~output_o $end
$var wire 1 Q H[4]~output_o $end
$var wire 1 R H[5]~output_o $end
$var wire 1 S H[6]~output_o $end
$var wire 1 T H[7]~output_o $end
$var wire 1 U H[8]~output_o $end
$var wire 1 V H[9]~output_o $end
$var wire 1 W H[10]~output_o $end
$var wire 1 X H[11]~output_o $end
$var wire 1 Y H[12]~output_o $end
$var wire 1 Z H[13]~output_o $end
$var wire 1 [ H[14]~output_o $end
$var wire 1 \ H[15]~output_o $end
$var wire 1 ] L[0]~output_o $end
$var wire 1 ^ L[1]~output_o $end
$var wire 1 _ L[2]~output_o $end
$var wire 1 ` L[3]~output_o $end
$var wire 1 a L[4]~output_o $end
$var wire 1 b L[5]~output_o $end
$var wire 1 c L[6]~output_o $end
$var wire 1 d L[7]~output_o $end
$var wire 1 e L[8]~output_o $end
$var wire 1 f L[9]~output_o $end
$var wire 1 g L[10]~output_o $end
$var wire 1 h L[11]~output_o $end
$var wire 1 i L[12]~output_o $end
$var wire 1 j L[13]~output_o $end
$var wire 1 k L[14]~output_o $end
$var wire 1 l L[15]~output_o $end
$var wire 1 m clk~input_o $end
$var wire 1 n clk~inputclkctrl_outclk $end
$var wire 1 o Add0~0_combout $end
$var wire 1 p posclk_cnt~1_combout $end
$var wire 1 q clr~input_o $end
$var wire 1 r rst~input_o $end
$var wire 1 s H[15]~0_combout $end
$var wire 1 t H[15]~0clkctrl_outclk $end
$var wire 1 u Add0~1 $end
$var wire 1 v Add0~2_combout $end
$var wire 1 w posclk_cnt~0_combout $end
$var wire 1 x Equal0~3_combout $end
$var wire 1 y Add0~3 $end
$var wire 1 z Add0~4_combout $end
$var wire 1 { Add0~5 $end
$var wire 1 | Add0~6_combout $end
$var wire 1 } Add0~7 $end
$var wire 1 ~ Add0~8_combout $end
$var wire 1 !! Add0~9 $end
$var wire 1 "! Add0~10_combout $end
$var wire 1 #! Add0~11 $end
$var wire 1 $! Add0~12_combout $end
$var wire 1 %! Add0~13 $end
$var wire 1 &! Add0~14_combout $end
$var wire 1 '! Add0~15 $end
$var wire 1 (! Add0~16_combout $end
$var wire 1 )! Add0~17 $end
$var wire 1 *! Add0~18_combout $end
$var wire 1 +! Add0~19 $end
$var wire 1 ,! Add0~20_combout $end
$var wire 1 -! Add0~21 $end
$var wire 1 .! Add0~22_combout $end
$var wire 1 /! Add0~23 $end
$var wire 1 0! Add0~24_combout $end
$var wire 1 1! Add0~25 $end
$var wire 1 2! Add0~26_combout $end
$var wire 1 3! Equal0~0_combout $end
$var wire 1 4! Equal0~2_combout $end
$var wire 1 5! Equal0~1_combout $end
$var wire 1 6! Equal0~4_combout $end
$var wire 1 7! clk_9375~feeder_combout $end
$var wire 1 8! clk_9375~q $end
$var wire 1 9! clk_9375~clkctrl_outclk $end
$var wire 1 :! H[15]~2_combout $end
$var wire 1 ;! H[15]~reg0_q $end
$var wire 1 <! H[14]~1_combout $end
$var wire 1 =! H[14]~reg0_q $end
$var wire 1 >! H[13]~reg0_q $end
$var wire 1 ?! H[12]~reg0_q $end
$var wire 1 @! H[11]~reg0_q $end
$var wire 1 A! H[10]~reg0_q $end
$var wire 1 B! H[9]~reg0_q $end
$var wire 1 C! H[8]~reg0_q $end
$var wire 1 D! H[7]~reg0_q $end
$var wire 1 E! H[6]~reg0_q $end
$var wire 1 F! H[5]~reg0_q $end
$var wire 1 G! H[4]~reg0_q $end
$var wire 1 H! H[3]~reg0_q $end
$var wire 1 I! H[2]~reg0_q $end
$var wire 1 J! H[1]~reg0_q $end
$var wire 1 K! H[0]~reg0_q $end
$var wire 1 L! Equal11~0_combout $end
$var wire 1 M! Equal2~0_combout $end
$var wire 1 N! Equal2~1_combout $end
$var wire 1 O! Equal5~0_combout $end
$var wire 1 P! Equal7~0_combout $end
$var wire 1 Q! Equal4~0_combout $end
$var wire 1 R! Equal8~0_combout $end
$var wire 1 S! Equal15~0_combout $end
$var wire 1 T! Equal8~1_combout $end
$var wire 1 U! Equal1~0_combout $end
$var wire 1 V! Equal12~0_combout $end
$var wire 1 W! Equal13~0_combout $end
$var wire 1 X! WideNor0~0_combout $end
$var wire 1 Y! Equal3~0_combout $end
$var wire 1 Z! Equal3~1_combout $end
$var wire 1 [! Equal15~1_combout $end
$var wire 1 \! Equal6~0_combout $end
$var wire 1 ]! WideOr99~0_combout $end
$var wire 1 ^! Equal10~0_combout $end
$var wire 1 _! Equal10~1_combout $end
$var wire 1 `! Equal9~0_combout $end
$var wire 1 a! Equal9~1_combout $end
$var wire 1 b! L~4_combout $end
$var wire 1 c! Equal11~1_combout $end
$var wire 1 d! Equal12~1_combout $end
$var wire 1 e! WideNor0~1_combout $end
$var wire 1 f! Equal1~1_combout $end
$var wire 1 g! Equal14~0_combout $end
$var wire 1 h! Equal16~0_combout $end
$var wire 1 i! Equal16~1_combout $end
$var wire 1 j! Equal4~1_combout $end
$var wire 1 k! Equal2~2_combout $end
$var wire 1 l! Equal5~1_combout $end
$var wire 1 m! WideOr99~1_combout $end
$var wire 1 n! WideOr10~2_combout $end
$var wire 1 o! WideNor0~2_combout $end
$var wire 1 p! WideNor0~combout $end
$var wire 1 q! state[1]~input_o $end
$var wire 1 r! state[2]~input_o $end
$var wire 1 s! Mux15~0_combout $end
$var wire 1 t! L~5_combout $end
$var wire 1 u! state[0]~input_o $end
$var wire 1 v! WideOr42~0_combout $end
$var wire 1 w! second~input_o $end
$var wire 1 x! flip~0_combout $end
$var wire 1 y! flip~q $end
$var wire 1 z! Mux15~1_combout $end
$var wire 1 {! Mux15~2_combout $end
$var wire 1 |! Mux15~3_combout $end
$var wire 1 }! Mux15~4_combout $end
$var wire 1 ~! L[15]~6_combout $end
$var wire 1 !" L[15]~7_combout $end
$var wire 1 "" L[0]~reg0_q $end
$var wire 1 #" L[1]~10_combout $end
$var wire 1 $" Mux14~7_combout $end
$var wire 1 %" L[1]~12_combout $end
$var wire 1 &" WideOr2~0_combout $end
$var wire 1 '" L~11_combout $end
$var wire 1 (" WideOr99~2_combout $end
$var wire 1 )" WideOr2~combout $end
$var wire 1 *" WideOr75~0_combout $end
$var wire 1 +" WideOr38~combout $end
$var wire 1 ," Mux14~4_combout $end
$var wire 1 -" Mux14~5_combout $end
$var wire 1 ." L~8_combout $end
$var wire 1 /" Equal6~1_combout $end
$var wire 1 0" WideOr6~2_combout $end
$var wire 1 1" L~9_combout $end
$var wire 1 2" L~13_combout $end
$var wire 1 3" L~14_combout $end
$var wire 1 4" L~51_combout $end
$var wire 1 5" Mux14~8_combout $end
$var wire 1 6" Mux14~6_combout $end
$var wire 1 7" L[1]~15_combout $end
$var wire 1 8" L[1]~reg0_q $end
$var wire 1 9" L~52_combout $end
$var wire 1 :" Selector58~0_combout $end
$var wire 1 ;" L~18_combout $end
$var wire 1 <" WideOr2~1_combout $end
$var wire 1 =" L~19_combout $end
$var wire 1 >" Mux13~4_combout $end
$var wire 1 ?" L~16_combout $end
$var wire 1 @" L~17_combout $end
$var wire 1 A" Mux13~3_combout $end
$var wire 1 B" Selector66~0_combout $end
$var wire 1 C" Mux13~0_combout $end
$var wire 1 D" Mux13~1_combout $end
$var wire 1 E" Mux13~2_combout $end
$var wire 1 F" Mux13~5_combout $end
$var wire 1 G" Mux13~6_combout $end
$var wire 1 H" L[2]~20_combout $end
$var wire 1 I" L[2]~reg0_q $end
$var wire 1 J" L~21_combout $end
$var wire 1 K" WideOr9~0_combout $end
$var wire 1 L" WideOr42~1_combout $end
$var wire 1 M" L~22_combout $end
$var wire 1 N" L~23_combout $end
$var wire 1 O" L~24_combout $end
$var wire 1 P" Mux12~2_combout $end
$var wire 1 Q" Mux12~3_combout $end
$var wire 1 R" L~25_combout $end
$var wire 1 S" L~29_combout $end
$var wire 1 T" WideOr42~combout $end
$var wire 1 U" L~26_combout $end
$var wire 1 V" L~27_combout $end
$var wire 1 W" L~28_combout $end
$var wire 1 X" Mux12~5_combout $end
$var wire 1 Y" Mux12~8_combout $end
$var wire 1 Z" Mux12~4_combout $end
$var wire 1 [" Mux12~6_combout $end
$var wire 1 \" Mux12~7_combout $end
$var wire 1 ]" L[3]~reg0_q $end
$var wire 1 ^" WideOr6~combout $end
$var wire 1 _" Mux11~2_combout $end
$var wire 1 `" L~32_combout $end
$var wire 1 a" L~33_combout $end
$var wire 1 b" L~30_combout $end
$var wire 1 c" L~31_combout $end
$var wire 1 d" Mux11~0_combout $end
$var wire 1 e" Mux11~3_combout $end
$var wire 1 f" Mux11~1_combout $end
$var wire 1 g" Mux11~4_combout $end
$var wire 1 h" L[4]~reg0_q $end
$var wire 1 i" WideOr98~0_combout $end
$var wire 1 j" Mux10~0_combout $end
$var wire 1 k" WideOr9~1_combout $end
$var wire 1 l" WideOr9~combout $end
$var wire 1 m" L~34_combout $end
$var wire 1 n" L~35_combout $end
$var wire 1 o" L~36_combout $end
$var wire 1 p" Mux10~1_combout $end
$var wire 1 q" Mux10~2_combout $end
$var wire 1 r" Mux10~3_combout $end
$var wire 1 s" Mux10~4_combout $end
$var wire 1 t" Mux10~5_combout $end
$var wire 1 u" Mux10~6_combout $end
$var wire 1 v" L[5]~37_combout $end
$var wire 1 w" L[5]~reg0_q $end
$var wire 1 x" L~42_combout $end
$var wire 1 y" L~43_combout $end
$var wire 1 z" WideOr99~combout $end
$var wire 1 {" L[6]~41_combout $end
$var wire 1 |" Mux9~3_combout $end
$var wire 1 }" L[6]~38_combout $end
$var wire 1 ~" L[6]~39_combout $end
$var wire 1 !# Mux9~0_combout $end
$var wire 1 "# Selector58~1_combout $end
$var wire 1 ## WideOr10~combout $end
$var wire 1 $# L~40_combout $end
$var wire 1 %# Mux9~1_combout $end
$var wire 1 &# Mux9~2_combout $end
$var wire 1 '# Mux9~4_combout $end
$var wire 1 (# Mux9~5_combout $end
$var wire 1 )# L[6]~reg0_q $end
$var wire 1 *# Selector83~0_combout $end
$var wire 1 +# L~44_combout $end
$var wire 1 ,# L~45_combout $end
$var wire 1 -# L~46_combout $end
$var wire 1 .# Selector103~0_combout $end
$var wire 1 /# L~48_combout $end
$var wire 1 0# L~47_combout $end
$var wire 1 1# L~49_combout $end
$var wire 1 2# Selector57~1_combout $end
$var wire 1 3# Mux8~3_combout $end
$var wire 1 4# Selector57~0_combout $end
$var wire 1 5# Mux8~2_combout $end
$var wire 1 6# Mux8~4_combout $end
$var wire 1 7# Mux8~9_combout $end
$var wire 1 8# Mux8~5_combout $end
$var wire 1 9# Mux8~6_combout $end
$var wire 1 :# Mux8~7_combout $end
$var wire 1 ;# Mux8~8_combout $end
$var wire 1 <# L[7]~reg0_q $end
$var wire 1 =# Selector56~0_combout $end
$var wire 1 ># Mux7~3_combout $end
$var wire 1 ?# Selector6~0_combout $end
$var wire 1 @# Selector56~1_combout $end
$var wire 1 A# Mux7~0_combout $end
$var wire 1 B# Mux7~1_combout $end
$var wire 1 C# Selector6~1_combout $end
$var wire 1 D# Mux7~2_combout $end
$var wire 1 E# Mux7~4_combout $end
$var wire 1 F# Mux7~5_combout $end
$var wire 1 G# Mux7~6_combout $end
$var wire 1 H# L[8]~reg0_q $end
$var wire 1 I# Selector5~0_combout $end
$var wire 1 J# Mux6~4_combout $end
$var wire 1 K# Mux6~0_combout $end
$var wire 1 L# Mux6~1_combout $end
$var wire 1 M# Mux6~2_combout $end
$var wire 1 N# Mux6~3_combout $end
$var wire 1 O# Mux6~5_combout $end
$var wire 1 P# L[9]~reg0_q $end
$var wire 1 Q# L~50_combout $end
$var wire 1 R# Mux5~0_combout $end
$var wire 1 S# Mux5~1_combout $end
$var wire 1 T# WideOr56~combout $end
$var wire 1 U# Mux5~2_combout $end
$var wire 1 V# Mux5~4_combout $end
$var wire 1 W# Mux5~5_combout $end
$var wire 1 X# Mux5~3_combout $end
$var wire 1 Y# L[10]~reg0_q $end
$var wire 1 Z# Mux4~0_combout $end
$var wire 1 [# Mux4~1_combout $end
$var wire 1 \# Mux4~2_combout $end
$var wire 1 ]# Mux4~3_combout $end
$var wire 1 ^# Mux4~4_combout $end
$var wire 1 _# Mux4~5_combout $end
$var wire 1 `# Mux4~6_combout $end
$var wire 1 a# L[11]~reg0_q $end
$var wire 1 b# Mux3~5_combout $end
$var wire 1 c# Selector2~0_combout $end
$var wire 1 d# Mux3~2_combout $end
$var wire 1 e# Mux3~3_combout $end
$var wire 1 f# Mux3~4_combout $end
$var wire 1 g# Mux3~6_combout $end
$var wire 1 h# L[12]~reg0_q $end
$var wire 1 i# Mux2~0_combout $end
$var wire 1 j# Mux2~1_combout $end
$var wire 1 k# L[13]~reg0_q $end
$var wire 1 l# Mux1~8_combout $end
$var wire 1 m# Mux1~6_combout $end
$var wire 1 n# Mux1~9_combout $end
$var wire 1 o# Mux1~7_combout $end
$var wire 1 p# L[14]~reg0_q $end
$var wire 1 q# Mux0~0_combout $end
$var wire 1 r# Mux0~1_combout $end
$var wire 1 s# L[15]~reg0_q $end
$var wire 1 t# posclk_cnt [13] $end
$var wire 1 u# posclk_cnt [12] $end
$var wire 1 v# posclk_cnt [11] $end
$var wire 1 w# posclk_cnt [10] $end
$var wire 1 x# posclk_cnt [9] $end
$var wire 1 y# posclk_cnt [8] $end
$var wire 1 z# posclk_cnt [7] $end
$var wire 1 {# posclk_cnt [6] $end
$var wire 1 |# posclk_cnt [5] $end
$var wire 1 }# posclk_cnt [4] $end
$var wire 1 ~# posclk_cnt [3] $end
$var wire 1 !$ posclk_cnt [2] $end
$var wire 1 "$ posclk_cnt [1] $end
$var wire 1 #$ posclk_cnt [0] $end
$upscope $end
$upscope $end
$enddefinitions $end
#0
$dumpvars
0!
1"
0#
0$
b0 %
15
14
13
12
11
10
1/
1.
1-
1,
1+
1*
1)
1(
1'
0&
1E
1D
1C
1B
1A
1@
1?
1>
1=
1<
1;
1:
19
18
17
16
xF
0G
1H
xI
1J
1K
1L
1M
1N
1O
1P
1Q
1R
1S
1T
1U
1V
1W
1X
1Y
1Z
1[
0\
1]
1^
1_
1`
1a
1b
1c
1d
1e
1f
1g
1h
1i
1j
1k
1l
0m
0n
1o
1p
1q
0r
1s
1t
0u
0v
0w
0x
1y
0z
0{
0|
1}
0~
0!!
0"!
1#!
0$!
0%!
0&!
1'!
0(!
0)!
0*!
1+!
0,!
0-!
0.!
1/!
00!
01!
02!
13!
14!
15!
06!
07!
08!
09!
1:!
0;!
1<!
0=!
0>!
0?!
0@!
0A!
0B!
0C!
0D!
0E!
0F!
0G!
0H!
0I!
0J!
0K!
1L!
0M!
0N!
0O!
0P!
1Q!
1R!
0S!
0T!
1U!
0V!
0W!
1X!
0Y!
0Z!
0[!
0\!
1]!
0^!
0_!
0`!
0a!
1b!
0c!
0d!
1e!
1f!
0g!
0h!
0i!
0j!
0k!
0l!
1m!
0n!
0o!
0p!
0q!
0r!
0s!
1t!
0u!
1v!
0w!
1x!
0y!
1z!
1{!
0|!
0}!
1~!
1!"
0""
1#"
0$"
0%"
1&"
0'"
0("
1)"
0*"
1+"
1,"
0-"
0."
0/"
00"
11"
02"
03"
04"
05"
06"
17"
08"
09"
1:"
0;"
1<"
0="
1>"
1?"
0@"
0A"
1B"
1C"
0D"
1E"
1F"
0G"
1H"
0I"
0J"
1K"
0L"
1M"
0N"
1O"
1P"
1Q"
1R"
1S"
1T"
0U"
0V"
1W"
0X"
0Y"
0Z"
1["
0\"
0]"
1^"
1_"
0`"
1a"
0b"
1c"
0d"
1e"
0f"
0g"
0h"
1i"
1j"
1k"
0l"
0m"
0n"
1o"
0p"
0q"
0r"
0s"
0t"
1u"
1v"
0w"
0x"
1y"
1z"
0{"
0|"
1}"
0~"
0!#
0"#
1##
1$#
1%#
0&#
1'#
0(#
0)#
1*#
0+#
1,#
1-#
1.#
0/#
00#
11#
02#
13#
04#
05#
06#
07#
08#
19#
1:#
0;#
0<#
0=#
0>#
0?#
1@#
0A#
1B#
1C#
1D#
0E#
1F#
0G#
0H#
0I#
1J#
0K#
1L#
0M#
1N#
0O#
0P#
0Q#
0R#
1S#
1T#
0U#
0V#
0W#
1X#
0Y#
1Z#
1[#
1\#
1]#
1^#
1_#
0`#
0a#
1b#
0c#
0d#
0e#
1f#
0g#
0h#
1i#
0j#
0k#
0l#
0m#
0n#
0o#
0p#
0q#
0r#
0s#
0#$
0"$
0!$
0~#
0}#
0|#
0{#
0z#
0y#
0x#
0w#
0v#
0u#
0t#
$end
#500
1!
1m
1n
0F
#1000
0!
0m
0n
1F
#1500
1!
1m
1n
0F
#2000
0!
0m
0n
1F
#2500
1!
1m
1n
0F
#3000
0!
0m
0n
1F
#3500
1!
1m
1n
0F
#4000
0!
0m
0n
1F
#4500
1!
1m
1n
0F
#5000
0!
0m
0n
1F
#5500
1!
1m
1n
0F
#6000
0!
0m
0n
1F
#6500
1!
1m
1n
0F
#7000
0!
0m
0n
1F
#7500
1!
1m
1n
0F
#8000
0!
0m
0n
1F
#8500
1!
1m
1n
0F
#9000
0!
0m
0n
1F
#9500
1!
1m
1n
0F
#10000
1#
0!
1r
0m
0n
1F
0s
0t
#10500
1!
1m
1n
0F
1#$
1u
0o
1v
0p
1w
#11000
0!
0m
0n
1F
#11500
1!
1m
1n
0F
1"$
0#$
1x
0y
0v
0u
1o
16!
1z
0w
1y
1v
1p
17!
0p
0z
#12000
0!
0m
0n
1F
#12500
1!
1m
1n
0F
18!
0"$
19!
0x
0v
06!
07!
1p
1Y#
1w"
1=!
1;!
0R!
0f!
1V!
1S!
1M!
0<!
0g
0b
0[
1\
0;
0@
0'
1&
0U!
1Y"
1@"
19"
13"
1'"
1n!
1N!
0V!
1e#
1Z"
0>"
14"
1=#
14#
1n"
1L"
1("
0C#
17#
0##
10"
1*"
1o!
1k!
0f#
0["
1A#
15#
0,#
1K#
0.#
1q"
0c"
1`"
01#
0z"
1D"
0)"
0D#
18#
0L#
0%#
0^"
01"
0+"
1l#
1c#
1I#
1?#
0j"
1$"
1p!
0Y"
1U"
0B"
04"
0t!
0m!
1g#
1\"
0a"
09#
0J#
1"#
1V"
0,"
1G#
1&#
0_"
1n#
1C#
0S#
15"
1f#
0Z#
08#
05#
1.#
0Z"
0H"
0!"
0e#
1p"
0`"
1="
1Q#
1z"
1l"
1c"
0n!
1s"
0:#
0$#
0y"
0'#
0e"
1D#
0g#
19#
1["
0q"
1a"
1>"
1J#
1U#
07#
1##
00"
0*"
0o!
1t"
1;#
1%#
0G#
1:#
0\"
1W#
1V#
1L#
1^"
11"
1+"
0l#
0c#
0I#
0?#
1j"
0$"
0p!
0u"
0&#
0;#
0X#
1_"
0n#
1m#
0F#
0B#
1S#
05"
1-"
0[#
1Z#
15#
0.#
0-#
1(#
1g"
1H"
1!"
1'#
1e"
1o#
1n#
16"
1[#
0(#
0g"
#13000
0!
0m
0n
1F
#13500
1!
1m
1n
0F
08!
1#$
09!
1u
0o
1v
0p
1w
#14000
0!
0m
0n
1F
#14500
1!
1m
1n
0F
1"$
0#$
1x
0y
0v
0u
1o
16!
1z
0w
1y
1v
1p
17!
0p
0z
#15000
0!
0m
0n
1F
#15500
1!
1m
1n
0F
18!
0"$
19!
0x
0v
06!
07!
1p
1p#
0Y#
0w"
18"
1>!
0=!
1Y!
0Q!
0k!
1R!
0k
1g
1b
0^
0Z
1[
07
1;
1@
0D
0(
1'
1Z!
0R!
0T#
0o"
1Y"
0U"
0T"
0O"
1B"
14"
1t!
1m!
1U!
1N"
0("
0v!
0U!
0V#
1e#
1Z"
0W"
0b#
0P"
15"
1`"
0Q#
0z"
0l"
0c"
1n!
1V!
1O"
11#
1z"
0D"
1)"
1T#
0K#
1,#
1T"
0V!
0f#
0["
0Q"
0a"
0J#
0U#
0s"
0C#
17#
0##
10"
1*"
1o!
1b#
1P"
1B#
1J#
0"#
0V"
1,"
0L#
1F#
1-#
1g#
1\"
0W#
0t"
0D#
18#
0%#
0^"
0*#
1Q"
1&#
1$#
1y"
1W"
0m#
05"
0-"
0N#
1G#
1X#
1u"
09#
0\#
0_"
0'#
0o#
0n#
06"
1O#
0:#
0]#
0e"
1(#
1;#
0^#
1g"
0_#
1`#
#16000
0!
0m
0n
1F
#16500
1!
1m
1n
0F
08!
1#$
09!
1u
0o
1v
0p
1w
#17000
0!
0m
0n
1F
#17500
1!
1m
1n
0F
1"$
0#$
1x
0y
0v
0u
1o
16!
1z
0w
1y
1v
1p
17!
0p
0z
#18000
0!
0m
0n
1F
#18500
1!
1m
1n
0F
18!
0"$
19!
0x
0v
06!
07!
1p
0p#
1h#
1a#
1Y#
1P#
1H#
1<#
1)#
1w"
1h"
1]"
08"
1?!
0>!
0Z!
0Y!
1Q!
1k
0i
0h
0g
0f
0e
0d
0c
0b
0a
0`
1^
0Y
1Z
17
09
0:
0;
0<
0=
0>
0?
0@
0A
0B
1D
0)
1(
1l#
0p"
0j"
0R"
0N"
0="
01"
0+"
1("
1$"
1v!
1p!
1j!
1n#
1q"
0S#
0O"
0>"
01#
0z"
1D"
0)"
15"
0T#
1K#
0,#
0T"
0Z#
0H"
0!"
1x"
0n"
0M"
0B"
04"
0&"
0t!
0m!
0b#
0P"
0B#
0J#
1"#
1V"
0,"
0F#
0-#
0[#
1,#
1o"
1N"
1p"
11#
1)"
0`"
1="
1Q#
1z"
1l"
1c"
0n!
0Q"
0W"
1F#
1-#
1O"
0q"
1B#
1,"
1a"
1>"
1J#
1U#
1s"
1C#
07#
1##
00"
0*"
0o!
1b#
1P"
1D#
1W#
1V#
1t"
08#
1L#
1%#
1^"
11"
1+"
0l#
1*#
1j"
1R"
0$"
0p!
1Q"
0G#
0X#
0u"
19#
1N#
0&#
1\#
1_"
0n#
1S#
05"
1Z#
1H"
1!"
1:#
0O#
1'#
1]#
1e"
1[#
0;#
0(#
1^#
0g"
1_#
0`#
#19000
0!
0m
0n
1F
#19500
1!
1m
1n
0F
08!
1#$
09!
1u
0o
1v
0p
1w
#20000
0!
0m
0n
1F
#20500
1!
1m
1n
0F
1"$
0#$
1x
0y
0v
0u
1o
16!
1z
0w
1y
1v
1p
17!
0p
0z
#21000
0!
0m
0n
1F
#21500
1!
1m
1n
0F
18!
0"$
19!
0x
0v
06!
07!
1p
0a#
0Y#
0P#
0H#
0<#
0)#
0w"
0h"
1@!
0?!
0Q!
0j!
1R!
1O!
1h
1g
1f
1e
1d
1c
1b
1a
0X
1Y
1:
1;
1<
1=
1>
1?
1@
1A
0*
1)
0R!
0x"
1n"
1M"
1B"
14"
1&"
1t!
1m!
1U!
0:"
1l!
0U!
0y"
0,#
0o"
0$#
0p"
01#
1`"
0="
0Q#
0z"
0l"
0c"
1n!
1V!
0@#
04#
0"#
10#
1x"
1U"
04"
0v!
0m!
0V!
0F#
0-#
0V#
1q"
0B#
0>"
0J#
0U#
0s"
0C#
17#
0##
10"
1*"
1o!
0A#
05#
11#
1y"
1W"
1T#
0K#
1,#
1T"
1Q#
1z"
1l"
1c"
0n!
0W#
0D#
0t"
18#
0L#
0%#
0^"
01"
0+"
1l#
1I#
1?#
0j"
0R"
1$"
1p!
1B#
1U#
1F#
1-#
1J#
1s"
1C#
07#
1##
00"
0*"
0o!
1X#
1G#
09#
1&#
0_"
1n#
1t"
15"
0Z#
1V#
08#
1.#
0H"
0!"
1D#
1W#
1L#
1%#
1^"
11"
1+"
0l#
0I#
0?#
1j"
1R"
0$"
0p!
0:#
0'#
0e"
0[#
19#
0G#
0X#
0&#
1_"
0n#
05"
1Z#
0V#
0.#
1H"
1!"
1;#
1(#
1g"
1:#
1'#
1e"
1[#
0;#
0(#
0g"
#22000
0!
0m
0n
1F
#22500
1!
1m
1n
0F
08!
1#$
09!
1u
0o
1v
0p
1w
#23000
0!
0m
0n
1F
#23500
1!
1m
1n
0F
1"$
0#$
1x
0y
0v
0u
1o
16!
1z
0w
1y
1v
1p
17!
0p
0z
#24000
0!
0m
0n
1F
#24500
1!
1m
1n
0F
18!
0"$
19!
0x
0v
06!
07!
1p
1A!
0@!
1/"
0l!
1\!
0W
1X
0+
1*
0n"
0V"
0S"
00#
0x"
0a"
0U"
0N"
14"
0)"
1v!
1m!
0`"
0]!
1o"
1$#
01#
0O"
0,"
0T#
1K#
0Q#
0l"
0c"
1n!
1a"
1V#
0B#
0b#
0P"
1m#
15"
1-"
0U#
0s"
0C#
17#
0##
10"
0D#
0Q"
1o#
1n#
16"
0V#
0t"
18#
0L#
0%#
0^"
1G#
0W#
1u"
09#
0N#
1&#
0\#
0_"
1X#
0:#
1O#
0'#
0]#
0e"
1;#
1(#
0^#
1g"
0_#
1`#
#25000
1$
0!
1w!
0m
0n
1F
#25500
1!
1m
1n
0F
08!
1#$
09!
1u
0o
1v
0p
1w
#26000
0!
0m
0n
1F
#26500
1!
1m
1n
0F
1"$
0#$
1x
0y
0v
0u
1o
16!
1z
0w
1y
1v
1p
17!
0p
0z
#27000
0!
0m
0n
1F
#27500
1!
1m
1n
0F
18!
0"$
19!
0x
0v
06!
07!
1p
1p#
1a#
1Y#
1P#
1H#
1<#
1)#
1w"
1h"
18"
1B!
0A!
1:"
0/"
0\!
1P!
0k
0h
0g
0f
0e
0d
0c
0b
0a
0^
0V
1W
07
0:
0;
0<
0=
0>
0?
0@
0A
0D
0,
1+
1@#
1"#
1n"
1V"
01"
1`"
1]!
1Q#
1C#
07#
1m"
0i"
03"
0("
0X!
1A#
0,#
0o"
0$#
0y"
0W"
0a"
1*"
1o!
1D#
08#
0n"
0n#
04"
11#
0D"
1)"
1T#
0K#
1##
1l"
00"
0t!
1B#
0F#
0-#
1%#
1s"
0+"
0G#
19#
1,#
1o"
05"
0"#
0V"
1,"
1U#
1L#
1^"
11"
0`"
1="
0&#
1t"
1:#
1F#
1-#
1V#
1$#
1y"
1W"
0m#
0-"
1W#
1N#
1\#
1_"
1a"
1>"
1'#
0u"
0;#
0o#
06"
0X#
0O#
1]#
1e"
0(#
1^#
0g"
1_#
0`#
#28000
0!
0m
0n
1F
#28500
1!
1m
1n
0F
08!
1#$
09!
1u
0o
1v
0p
1w
#29000
0!
0m
0n
1F
#29500
1!
1m
1n
0F
1"$
0#$
1x
0y
0v
0u
1o
16!
1z
0w
1y
1v
1p
17!
0p
0z
#30000
0!
0m
0n
1F
#30500
1!
1m
1n
0F
18!
0"$
19!
0x
0v
06!
07!
1p
0p#
0a#
0Y#
0P#
0H#
0<#
0)#
0w"
0h"
08"
1C!
0B!
0N!
1Q!
0P!
1k
1h
1g
1f
1e
1d
1c
1b
1a
1^
0U
1V
17
1:
1;
1<
1=
1>
1?
1@
1A
1D
0-
1,
0O!
1R!
0Q#
0C#
17#
14#
0m"
1i"
1S"
13"
1("
1X!
1T!
0D#
18#
15#
1n"
0j"
0T"
14"
01#
0z"
1D"
0)"
1l#
0T#
1K#
1I#
1?#
0##
0l"
0R"
10"
1$"
1t!
1p!
1n#
0Z#
0J#
10#
1+#
1z"
0i"
0S"
1N"
0B"
0?"
1)"
0X!
1G#
09#
0,#
0o"
15"
1"#
0,"
0U#
0L#
1C#
0%#
0s"
0^"
01"
1`"
0="
08#
05#
1.#
0H"
0!"
11#
1,#
1J#
1j"
1T"
1O"
1p"
0@"
1,"
0l#
1T#
0K#
0I#
0?#
1##
1l"
1R"
00"
0$"
0t!
0p!
0:#
1&#
1D#
0t"
0_"
0a"
0>"
19#
1b#
1P"
0q"
05"
0n#
1U#
1L#
0N#
0C#
1%#
1s"
1^"
11"
0`"
1="
0\#
0[#
1Z#
0V#
18#
15#
0.#
1u"
1H"
1!"
1;#
0'#
0G#
0e"
1:#
1Q"
1N#
1O#
0D#
0&#
1t"
1\#
1_"
1a"
1>"
0]#
1[#
09#
1(#
1g"
0;#
0O#
1G#
1'#
0u"
1]#
1e"
0^#
0:#
0(#
1^#
0g"
0_#
1;#
1_#
1`#
0`#
#31000
0!
0m
0n
1F
#31500
1!
1m
1n
0F
08!
1#$
09!
1u
0o
1v
0p
1w
#32000
0!
0m
0n
1F
