Washing_Machine_FPGA/Blocks_PRO_MAX/Timer/simulation/qsim/Timer.msim.vcd
$comment
	File created using the following command:
		vcd file Timer.msim.vcd -direction
$end
$date
	Wed Jan 12 23:45:45 2022
$end
$version
	ModelSim Version 10.1d
$end
$timescale
	1ps
$end
$scope module Timer_vlg_vec_tst $end
$var reg 1 ! clk $end
$var reg 1 " clr $end
$var reg 1 # pause $end
$var reg 1 $ rst $end
$var wire 1 % Dehydrating_timer $end
$var wire 1 & Draining_timer $end
$var wire 1 ' Rinsing_timer $end
$var wire 1 ( Warning_timer $end
$var wire 1 ) cnt_min [3] $end
$var wire 1 * cnt_min [2] $end
$var wire 1 + cnt_min [1] $end
$var wire 1 , cnt_min [0] $end
$var wire 1 - cnt_one_tenth_sec [3] $end
$var wire 1 . cnt_one_tenth_sec [2] $end
$var wire 1 / cnt_one_tenth_sec [1] $end
$var wire 1 0 cnt_one_tenth_sec [0] $end
$var wire 1 1 cnt_sec [3] $end
$var wire 1 2 cnt_sec [2] $end
$var wire 1 3 cnt_sec [1] $end
$var wire 1 4 cnt_sec [0] $end
$var wire 1 5 cnt_ten_sec [3] $end
$var wire 1 6 cnt_ten_sec [2] $end
$var wire 1 7 cnt_ten_sec [1] $end
$var wire 1 8 cnt_ten_sec [0] $end
$var wire 1 9 second $end
$var wire 1 : sampler $end
$scope module i1 $end
$var wire 1 ; gnd $end
$var wire 1 < vcc $end
$var wire 1 = unknown $end
$var tri1 1 > devclrn $end
$var tri1 1 ? devpor $end
$var tri1 1 @ devoe $end
$var wire 1 A Rinsing_timer~output_o $end
$var wire 1 B Draining_timer~output_o $end
$var wire 1 C Dehydrating_timer~output_o $end
$var wire 1 D Warning_timer~output_o $end
$var wire 1 E second~output_o $end
$var wire 1 F cnt_one_tenth_sec[0]~output_o $end
$var wire 1 G cnt_one_tenth_sec[1]~output_o $end
$var wire 1 H cnt_one_tenth_sec[2]~output_o $end
$var wire 1 I cnt_one_tenth_sec[3]~output_o $end
$var wire 1 J cnt_sec[0]~output_o $end
$var wire 1 K cnt_sec[1]~output_o $end
$var wire 1 L cnt_sec[2]~output_o $end
$var wire 1 M cnt_sec[3]~output_o $end
$var wire 1 N cnt_ten_sec[0]~output_o $end
$var wire 1 O cnt_ten_sec[1]~output_o $end
$var wire 1 P cnt_ten_sec[2]~output_o $end
$var wire 1 Q cnt_ten_sec[3]~output_o $end
$var wire 1 R cnt_min[0]~output_o $end
$var wire 1 S cnt_min[1]~output_o $end
$var wire 1 T cnt_min[2]~output_o $end
$var wire 1 U cnt_min[3]~output_o $end
$var wire 1 V clk~input_o $end
$var wire 1 W clk~inputclkctrl_outclk $end
$var wire 1 X Add0~0_combout $end
$var wire 1 Y posclk_cnt~1_combout $end
$var wire 1 Z rst~input_o $end
$var wire 1 [ clr~input_o $end
$var wire 1 \ Rinsing_timer~0_combout $end
$var wire 1 ] Rinsing_timer~0clkctrl_outclk $end
$var wire 1 ^ pause~input_o $end
$var wire 1 _ Add0~1 $end
$var wire 1 ` Add0~2_combout $end
$var wire 1 a posclk_cnt~0_combout $end
$var wire 1 b Add0~3 $end
$var wire 1 c Add0~4_combout $end
$var wire 1 d Add0~5 $end
$var wire 1 e Add0~6_combout $end
$var wire 1 f Add0~7 $end
$var wire 1 g Add0~8_combout $end
$var wire 1 h Add0~9 $end
$var wire 1 i Add0~10_combout $end
$var wire 1 j Equal0~2_combout $end
$var wire 1 k Equal0~3_combout $end
$var wire 1 l Add0~11 $end
$var wire 1 m Add0~12_combout $end
$var wire 1 n Add0~13 $end
$var wire 1 o Add0~14_combout $end
$var wire 1 p Add0~15 $end
$var wire 1 q Add0~16_combout $end
$var wire 1 r Add0~17 $end
$var wire 1 s Add0~18_combout $end
$var wire 1 t Equal0~1_combout $end
$var wire 1 u Add0~19 $end
$var wire 1 v Add0~20_combout $end
$var wire 1 w Add0~21 $end
$var wire 1 x Add0~22_combout $end
$var wire 1 y Add0~23 $end
$var wire 1 z Add0~24_combout $end
$var wire 1 { Add0~25 $end
$var wire 1 | Add0~26_combout $end
$var wire 1 } Equal0~0_combout $end
$var wire 1 ~ Equal0~4_combout $end
$var wire 1 !! clk_9375~feeder_combout $end
$var wire 1 "! clk_9375~q $end
$var wire 1 #! clk_9375~clkctrl_outclk $end
$var wire 1 $! pos_9375clk_cnt[0]~2_combout $end
$var wire 1 %! pos_9375clk_cnt[1]~1_combout $end
$var wire 1 &! pos_9375clk_cnt[2]~0_combout $end
$var wire 1 '! q0~feeder_combout $end
$var wire 1 (! rst~inputclkctrl_outclk $end
$var wire 1 )! q0~q $end
$var wire 1 *! q1~q $end
$var wire 1 +! double_edge_detect~combout $end
$var wire 1 ,! double_edge_detect~clkctrl_outclk $end
$var wire 1 -! cnt_one_tenth_sec[0]~3_combout $end
$var wire 1 .! cnt_one_tenth_sec[0]~reg0_q $end
$var wire 1 /! one_tenth_second_cnt[1]~12_combout $end
$var wire 1 0! one_tenth_second_cnt[1]~13 $end
$var wire 1 1! one_tenth_second_cnt[2]~14_combout $end
$var wire 1 2! one_tenth_second_cnt[2]~15 $end
$var wire 1 3! one_tenth_second_cnt[3]~16_combout $end
$var wire 1 4! one_tenth_second_cnt[3]~17 $end
$var wire 1 5! one_tenth_second_cnt[4]~18_combout $end
$var wire 1 6! one_tenth_second_cnt[4]~19 $end
$var wire 1 7! one_tenth_second_cnt[5]~20_combout $end
$var wire 1 8! one_tenth_second_cnt[5]~21 $end
$var wire 1 9! one_tenth_second_cnt[6]~22_combout $end
$var wire 1 :! one_tenth_second_cnt[6]~23 $end
$var wire 1 ;! one_tenth_second_cnt[7]~24_combout $end
$var wire 1 <! one_tenth_second_cnt[7]~25 $end
$var wire 1 =! one_tenth_second_cnt[8]~26_combout $end
$var wire 1 >! one_tenth_second_cnt[8]~27 $end
$var wire 1 ?! one_tenth_second_cnt[9]~28_combout $end
$var wire 1 @! one_tenth_second_cnt[9]~29 $end
$var wire 1 A! one_tenth_second_cnt[10]~30_combout $end
$var wire 1 B! one_tenth_second_cnt[10]~31 $end
$var wire 1 C! one_tenth_second_cnt[11]~32_combout $end
$var wire 1 D! one_tenth_second_cnt[11]~33 $end
$var wire 1 E! one_tenth_second_cnt[12]~34_combout $end
$var wire 1 F! Equal1~0_combout $end
$var wire 1 G! Equal1~1_combout $end
$var wire 1 H! Equal1~2_combout $end
$var wire 1 I! Equal4~0_combout $end
$var wire 1 J! Rinsing_timer~reg0_q $end
$var wire 1 K! Equal2~0_combout $end
$var wire 1 L! Draining_timer~reg0_q $end
$var wire 1 M! Equal3~0_combout $end
$var wire 1 N! Dehydrating_timer~reg0_q $end
$var wire 1 O! Equal1~3_combout $end
$var wire 1 P! Equal1~4_combout $end
$var wire 1 Q! Warning_timer~reg0_q $end
$var wire 1 R! cnt_one_tenth_sec[2]~1_combout $end
$var wire 1 S! cnt_one_tenth_sec[2]~reg0_q $end
$var wire 1 T! cnt_one_tenth_sec~0_combout $end
$var wire 1 U! cnt_one_tenth_sec[1]~reg0_q $end
$var wire 1 V! cnt_one_tenth_sec~2_combout $end
$var wire 1 W! cnt_one_tenth_sec[3]~reg0_q $end
$var wire 1 X! Equal5~0_combout $end
$var wire 1 Y! second~reg0_q $end
$var wire 1 Z! second~reg0clkctrl_outclk $end
$var wire 1 [! cnt_sec[0]~3_combout $end
$var wire 1 \! cnt_sec[0]~reg0_q $end
$var wire 1 ]! cnt_sec[2]~1_combout $end
$var wire 1 ^! cnt_sec[2]~reg0_q $end
$var wire 1 _! cnt_sec~2_combout $end
$var wire 1 `! cnt_sec[3]~reg0_q $end
$var wire 1 a! cnt_sec~0_combout $end
$var wire 1 b! cnt_sec[1]~reg0_q $end
$var wire 1 c! Equal6~0_combout $end
$var wire 1 d! ten_second~q $end
$var wire 1 e! ten_second~clkctrl_outclk $end
$var wire 1 f! cnt_ten_sec[0]~4_combout $end
$var wire 1 g! cnt_ten_sec[0]~reg0_q $end
$var wire 1 h! cnt_ten_sec[3]~2_combout $end
$var wire 1 i! cnt_ten_sec[3]~3_combout $end
$var wire 1 j! cnt_ten_sec[3]~reg0_q $end
$var wire 1 k! cnt_ten_sec~1_combout $end
$var wire 1 l! cnt_ten_sec[2]~reg0_q $end
$var wire 1 m! cnt_ten_sec~0_combout $end
$var wire 1 n! cnt_ten_sec[1]~reg0_q $end
$var wire 1 o! Equal7~0_combout $end
$var wire 1 p! minute~q $end
$var wire 1 q! minute~clkctrl_outclk $end
$var wire 1 r! Equal8~0_combout $end
$var wire 1 s! cnt_min~2_combout $end
$var wire 1 t! cnt_min[0]~reg0_q $end
$var wire 1 u! cnt_min~3_combout $end
$var wire 1 v! cnt_min[1]~reg0_q $end
$var wire 1 w! cnt_min~5_combout $end
$var wire 1 x! cnt_min[2]~reg0_q $end
$var wire 1 y! Add6~0_combout $end
$var wire 1 z! cnt_min~4_combout $end
$var wire 1 {! cnt_min[3]~reg0_q $end
$var wire 1 |! posclk_cnt [13] $end
$var wire 1 }! posclk_cnt [12] $end
$var wire 1 ~! posclk_cnt [11] $end
$var wire 1 !" posclk_cnt [10] $end
$var wire 1 "" posclk_cnt [9] $end
$var wire 1 #" posclk_cnt [8] $end
$var wire 1 $" posclk_cnt [7] $end
$var wire 1 %" posclk_cnt [6] $end
$var wire 1 &" posclk_cnt [5] $end
$var wire 1 '" posclk_cnt [4] $end
$var wire 1 (" posclk_cnt [3] $end
$var wire 1 )" posclk_cnt [2] $end
$var wire 1 *" posclk_cnt [1] $end
$var wire 1 +" posclk_cnt [0] $end
$var wire 1 ," pos_9375clk_cnt [2] $end
$var wire 1 -" pos_9375clk_cnt [1] $end
$var wire 1 ." pos_9375clk_cnt [0] $end
$var wire 1 /" one_tenth_second_cnt [12] $end
$var wire 1 0" one_tenth_second_cnt [11] $end
$var wire 1 1" one_tenth_second_cnt [10] $end
$var wire 1 2" one_tenth_second_cnt [9] $end
$var wire 1 3" one_tenth_second_cnt [8] $end
$var wire 1 4" one_tenth_second_cnt [7] $end
$var wire 1 5" one_tenth_second_cnt [6] $end
$var wire 1 6" one_tenth_second_cnt [5] $end
$var wire 1 7" one_tenth_second_cnt [4] $end
$var wire 1 8" one_tenth_second_cnt [3] $end
$var wire 1 9" one_tenth_second_cnt [2] $end
$var wire 1 :" one_tenth_second_cnt [1] $end
$var wire 1 ;" one_tenth_second_cnt [0] $end
$upscope $end
$upscope $end
$enddefinitions $end
#0
$dumpvars
0!
1"
1#
1$
1%
1&
1'
1(
0,
0+
0*
0)
00
0/
0.
0-
04
03
02
01
08
07
06
05
19
x:
0;
1<
x=
1>
1?
1@
1A
1B
1C
1D
1E
0F
0G
0H
0I
0J
0K
0L
0M
0N
0O
0P
0Q
0R
0S
0T
0U
0V
0W
1X
1Y
1Z
1[
0\
0]
1^
0_
0`
0a
1b
0c
0d
0e
1f
0g
0h
0i
1j
0k
1l
0m
0n
0o
1p
0q
0r
0s
1t
1u
0v
0w
0x
1y
0z
0{
0|
1}
0~
0!!
0"!
0#!
1$!
0%!
0&!
0'!
1(!
0)!
0*!
0+!
0,!
1-!
0.!
0/!
00!
01!
12!
03!
04!
05!
16!
07!
08!
09!
1:!
0;!
0<!
0=!
1>!
0?!
0@!
0A!
1B!
0C!
0D!
0E!
1F!
1G!
1H!
0I!
0J!
0K!
0L!
0M!
0N!
1O!
0P!
0Q!
0R!
0S!
0T!
0U!
0V!
0W!
0X!
0Y!
0Z!
1[!
0\!
0]!
0^!
0_!
0`!
0a!
0b!
0c!
0d!
0e!
1f!
0g!
0h!
0i!
0j!
0k!
0l!
0m!
0n!
0o!
0p!
0q!
0r!
1s!
0t!
0u!
0v!
0w!
0x!
0y!
0z!
0{!
0+"
0*"
0)"
0("
0'"
0&"
0%"
0$"
0#"
0""
0!"
0~!
0}!
0|!
0."
0-"
0,"
z;"
0:"
09"
08"
07"
06"
05"
04"
03"
02"
01"
00"
0/"
$end
#2500
1!
1V
1W
0:
1+"
1_
0X
1`
0Y
1a
#5000
0!
0V
0W
1:
#7500
1!
1V
1W
0:
1*"
0+"
1k
0b
0`
0_
1X
1~
1c
0a
1b
1`
1Y
1!!
0Y
0c
#10000
0$
0!
0Z
0V
0(!
0W
1:
1\
1]
0*"
0k
0`
0~
0!!
1Y
#12500
1!
1V
1W
0:
#15000
0!
0V
0W
1:
#17500
1!
1V
1W
0:
#20000
1$
0!
1Z
0V
1(!
0W
1:
0\
0]
#22500
1!
1V
1W
0:
1+"
1_
0X
1`
0Y
1a
#25000
0!
0V
0W
1:
#27500
1!
1V
1W
0:
1*"
0+"
1k
0b
0`
0_
1X
1~
1c
0a
1b
1`
1Y
1!!
0Y
0c
#30000
0!
0V
0W
1:
#32500
1!
1V
1W
0:
1"!
0*"
1#!
0k
0`
0~
0!!
1Y
1."
1%!
0$!
#35000
0!
0V
0W
1:
#37500
1!
1V
1W
0:
0"!
1+"
0#!
1_
0X
1`
0Y
1a
#40000
0!
0V
0W
1:
#42500
1!
1V
1W
0:
1*"
0+"
1k
0b
0`
0_
1X
1~
1c
0a
1b
1`
1Y
1!!
0Y
0c
#45000
0!
0V
0W
1:
#47500
1!
1V
1W
0:
1"!
0*"
1#!
0k
0`
0~
0!!
1Y
1-"
0."
1$!
#50000
0!
0V
0W
1:
#52500
1!
1V
1W
0:
0"!
1+"
0#!
1_
0X
1`
0Y
1a
#55000
0!
0V
0W
1:
#57500
1!
1V
1W
0:
1*"
0+"
1k
0b
0`
0_
1X
1~
1c
0a
1b
1`
1Y
1!!
0Y
0c
#60000
0!
0V
0W
1:
#62500
1!
1V
1W
0:
1"!
0*"
1#!
0k
0`
0~
0!!
1Y
1."
1&!
0%!
0$!
#65000
0!
0V
0W
1:
#67500
1!
1V
1W
0:
0"!
1+"
0#!
1_
0X
1`
0Y
1a
#70000
0!
0V
0W
1:
#72500
1!
1V
1W
0:
1*"
0+"
1k
0b
0`
0_
1X
1~
1c
0a
1b
1`
1Y
1!!
0Y
0c
#75000
0!
0V
0W
1:
#77500
1!
1V
1W
0:
1"!
0*"
1#!
0k
0`
0~
0!!
1Y
1,"
0-"
0."
1'!
1$!
#80000
0!
0V
0W
1:
#82500
1!
1V
1W
0:
1)!
0"!
1+"
0#!
1+!
1_
0X
1,!
1`
0Y
1a
1.!
1T!
0F!
1/!
0-!
1F
10
0H!
#85000
0!
0V
0W
1:
#87500
1!
1V
1W
0:
1*!
1*"
0+"
0+!
1k
0b
0`
0_
1X
0,!
1~
1c
0a
1b
1`
1Y
1!!
0Y
0c
#90000
0!
0V
0W
1:
#92500
1!
1V
1W
0:
1"!
0*"
1#!
0k
0`
0~
0!!
1Y
1."
1%!
0$!
#95000
0!
0V
0W
1:
#97500
1!
1V
1W
0:
0"!
1+"
0#!
1_
0X
1`
0Y
1a
#100000
0!
0V
0W
1:
#102500
1!
1V
1W
0:
1*"
0+"
1k
0b
0`
0_
1X
1~
1c
0a
1b
1`
1Y
1!!
0Y
0c
#105000
0!
0V
0W
1:
#107500
1!
1V
1W
0:
1"!
0*"
1#!
0k
0`
0~
0!!
1Y
1-"
0."
1$!
#110000
0!
0V
0W
1:
#112500
1!
1V
1W
0:
0"!
1+"
0#!
1_
0X
1`
0Y
1a
#115000
0!
0V
0W
1:
#117500
1!
1V
1W
0:
1*"
0+"
1k
0b
0`
0_
1X
1~
1c
0a
1b
1`
1Y
1!!
0Y
0c
#120000
0!
0V
0W
1:
#122500
1!
1V
1W
0:
1"!
0*"
1#!
0k
0`
0~
0!!
1Y
1."
0&!
0%!
0$!
#125000
0!
0V
0W
1:
#127500
1!
1V
1W
0:
0"!
1+"
0#!
1_
0X
1`
0Y
1a
#130000
0!
0V
0W
1:
#132500
1!
1V
1W
0:
1*"
0+"
1k
0b
0`
0_
1X
1~
1c
0a
1b
1`
1Y
1!!
0Y
0c
#135000
0!
0V
0W
1:
#137500
1!
1V
1W
0:
1"!
0*"
1#!
0k
0`
0~
0!!
1Y
0,"
0-"
0."
0'!
1$!
#140000
0!
0V
0W
1:
#142500
1!
1V
1W
0:
0)!
0"!
1+"
0#!
1+!
1_
0X
1,!
1`
0Y
1a
1:"
1U!
0.!
1F!
1-!
1G
0F
1/
00
1P!
1H!
#145000
0!
0V
0W
1:
#147500
1!
1V
1W
0:
0*!
1Q!
1*"
0+"
0+!
1k
0b
0`
0_
1X
0D
0,!
0(
1~
1c
0a
1b
1`
1Y
1!!
0Y
0c
#150000
0!
0V
0W
1:
#152500
1!
1V
1W
0:
1"!
0*"
1#!
0k
0`
0~
0!!
1Y
1."
1%!
0$!
#155000
0!
0V
0W
1:
#157500
1!
1V
1W
0:
0"!
1+"
0#!
1_
0X
1`
0Y
1a
#160000
0!
0V
0W
1:
#162500
1!
1V
1W
0:
1*"
0+"
1k
0b
0`
0_
1X
1~
1c
0a
1b
1`
1Y
1!!
0Y
0c
#165000
0!
0V
0W
1:
#167500
1!
1V
1W
0:
1"!
0*"
1#!
0k
0`
0~
0!!
1Y
1-"
0."
1$!
#170000
0!
0V
0W
1:
#172500
1!
1V
1W
0:
0"!
1+"
0#!
1_
0X
1`
0Y
1a
#175000
0!
0V
0W
1:
#177500
1!
1V
1W
0:
1*"
0+"
1k
0b
0`
0_
1X
1~
1c
0a
1b
1`
1Y
1!!
0Y
0c
#180000
0!
0V
0W
1:
#182500
1!
1V
1W
0:
1"!
0*"
1#!
0k
0`
0~
0!!
1Y
1."
1&!
0%!
0$!
#185000
0!
0V
0W
1:
#187500
1!
1V
1W
0:
0"!
1+"
0#!
1_
0X
1`
0Y
1a
#190000
0!
0V
0W
1:
#192500
1!
1V
1W
0:
1*"
0+"
1k
0b
0`
0_
1X
1~
1c
0a
1b
1`
1Y
1!!
0Y
0c
#195000
0!
0V
0W
1:
#197500
1!
1V
1W
0:
1"!
0*"
1#!
0k
0`
0~
0!!
1Y
1,"
0-"
0."
1'!
1$!
#200000
0!
0V
0W
1:
#202500
1!
1V
1W
0:
1)!
0"!
1+"
0#!
1+!
1_
0X
1,!
1`
0Y
1a
1.!
0T!
1R!
0F!
10!
0/!
0-!
1F
10
0P!
0H!
11!
#205000
0!
0V
0W
1:
#207500
1!
1V
1W
0:
1*!
0Q!
1*"
0+"
0+!
1k
0b
0`
0_
1X
1D
0,!
1(
1~
1c
0a
1b
1`
1Y
1!!
0Y
0c
#210000
0!
0V
0W
1:
#212500
1!
1V
1W
0:
1"!
0*"
1#!
0k
0`
0~
0!!
1Y
1."
1%!
0$!
#215000
0!
0V
0W
1:
#217500
1!
1V
1W
0:
0"!
1+"
0#!
1_
0X
1`
0Y
1a
#220000
0!
0V
0W
1:
#222500
1!
1V
1W
0:
1*"
0+"
1k
0b
0`
0_
1X
1~
1c
0a
1b
1`
1Y
1!!
0Y
0c
#225000
0!
0V
0W
1:
#227500
1!
1V
1W
0:
1"!
0*"
1#!
0k
0`
0~
0!!
1Y
1-"
0."
1$!
#230000
0!
0V
0W
1:
#232500
1!
1V
1W
0:
0"!
1+"
0#!
1_
0X
1`
0Y
1a
#235000
0!
0V
0W
1:
#237500
1!
1V
1W
0:
1*"
0+"
1k
0b
0`
0_
1X
1~
1c
0a
1b
1`
1Y
1!!
0Y
0c
#240000
0!
0V
0W
1:
#242500
1!
1V
1W
0:
1"!
0*"
1#!
0k
0`
0~
0!!
1Y
1."
0&!
0%!
0$!
#245000
0!
0V
0W
1:
#247500
1!
1V
1W
0:
0"!
1+"
0#!
1_
0X
1`
0Y
1a
#250000
0!
0V
0W
1:
#252500
1!
1V
1W
0:
1*"
0+"
1k
0b
0`
0_
1X
1~
1c
0a
1b
1`
1Y
1!!
0Y
0c
#255000
0!
0V
0W
1:
#257500
1!
1V
1W
0:
1"!
0*"
1#!
0k
0`
0~
0!!
1Y
0,"
0-"
0."
0'!
1$!
#260000
0!
0V
0W
1:
#262500
1!
1V
1W
0:
0)!
0"!
1+"
0#!
1+!
1_
0X
1,!
1`
0Y
1a
19"
0:"
0U!
1S!
0.!
0O!
02!
01!
00!
1F!
1-!
0G
1H
0F
0/
1.
00
13!
12!
11!
1H!
03!
1K!
#265000
0!
0V
0W
1:
#267500
1!
1V
1W
0:
0*!
1L!
1*"
0+"
0+!
1k
0b
0`
0_
1X
0B
0,!
0&
1~
1c
0a
1b
1`
1Y
1!!
0Y
0c
#270000
0!
0V
0W
1:
#272500
1!
1V
1W
0:
1"!
0*"
1#!
0k
0`
0~
0!!
1Y
1."
1%!
0$!
#275000
0!
0V
0W
1:
#277500
1!
1V
1W
0:
0"!
1+"
0#!
1_
0X
1`
0Y
1a
#280000
0!
0V
0W
1:
#282500
1!
1V
1W
0:
1*"
0+"
1k
0b
0`
0_
1X
1~
1c
0a
1b
1`
1Y
1!!
0Y
0c
#285000
0!
0V
0W
1:
#287500
1!
1V
1W
0:
1"!
0*"
1#!
0k
0`
0~
0!!
1Y
1-"
0."
1$!
#290000
0!
0V
0W
1:
#292500
1!
1V
1W
0:
0"!
1+"
0#!
1_
0X
1`
0Y
1a
#295000
0!
0V
0W
1:
#297500
1!
1V
1W
0:
1*"
0+"
1k
0b
0`
0_
1X
1~
1c
0a
1b
1`
1Y
1!!
0Y
0c
#300000
0!
0V
0W
1:
#302500
1!
1V
1W
0:
1"!
0*"
1#!
0k
0`
0~
0!!
1Y
1."
1&!
0%!
0$!
#305000
0!
0V
0W
1:
#307500
1!
1V
1W
0:
0"!
1+"
0#!
1_
0X
1`
0Y
1a
#310000
0!
0V
0W
1:
#312500
1!
1V
1W
0:
1*"
0+"
1k
0b
0`
0_
1X
1~
1c
0a
1b
1`
1Y
1!!
0Y
0c
#315000
0!
0V
0W
1:
#317500
1!
1V
1W
0:
1"!
0*"
1#!
0k
0`
0~
0!!
1Y
1,"
0-"
0."
1'!
1$!
#320000
0!
0V
0W
1:
#322500
1!
1V
1W
0:
1)!
0"!
1+"
0#!
1+!
1_
0X
1,!
1`
0Y
1a
1.!
1T!
0F!
1/!
0-!
1F
10
0H!
0K!
#325000
0!
0V
0W
1:
#327500
1!
1V
1W
0:
1*!
0L!
1*"
0+"
0+!
1k
0b
0`
0_
1X
1B
0,!
1&
1~
1c
0a
1b
1`
1Y
1!!
0Y
0c
#330000
0!
0V
0W
1:
#332500
1!
1V
1W
0:
1"!
0*"
1#!
0k
0`
0~
0!!
1Y
1."
1%!
0$!
#335000
0!
0V
0W
1:
#337500
1!
1V
1W
0:
0"!
1+"
0#!
1_
0X
1`
0Y
1a
#340000
0!
0V
0W
1:
#342500
1!
1V
1W
0:
1*"
0+"
1k
0b
0`
0_
1X
1~
1c
0a
1b
1`
1Y
1!!
0Y
0c
#345000
0!
0V
0W
1:
#347500
1!
1V
1W
0:
1"!
0*"
1#!
0k
0`
0~
0!!
1Y
1-"
0."
1$!
#350000
0!
0V
0W
1:
#352500
1!
1V
1W
0:
0"!
1+"
0#!
1_
0X
1`
0Y
1a
#355000
0!
0V
0W
1:
#357500
1!
1V
1W
0:
1*"
0+"
1k
0b
0`
0_
1X
1~
1c
0a
1b
1`
1Y
1!!
0Y
0c
#360000
0!
0V
0W
1:
#362500
1!
1V
1W
0:
1"!
0*"
1#!
0k
0`
0~
0!!
1Y
1."
0&!
0%!
0$!
#365000
0!
0V
0W
1:
#367500
1!
1V
1W
0:
0"!
1+"
0#!
1_
0X
1`
0Y
1a
#370000
0!
0V
0W
1:
#372500
1!
1V
1W
0:
1*"
0+"
1k
0b
0`
0_
1X
1~
1c
0a
1b
1`
1Y
1!!
0Y
0c
#375000
0!
0V
0W
1:
#377500
1!
1V
1W
0:
1"!
0*"
1#!
0k
0`
0~
0!!
1Y
0,"
0-"
0."
0'!
1$!
#380000
0!
0V
0W
1:
#382500
1!
1V
1W
0:
0)!
0"!
1+"
0#!
1+!
1_
0X
1,!
1`
0Y
1a
1:"
1U!
0.!
1F!
1-!
1G
0F
1/
00
1H!
1M!
#385000
0!
0V
0W
1:
#387500
1!
1V
1W
0:
0*!
1N!
1*"
0+"
0+!
1k
0b
0`
0_
1X
0C
0,!
0%
1~
1c
0a
1b
1`
1Y
1!!
0Y
0c
#390000
0!
0V
0W
1:
#392500
1!
1V
1W
0:
1"!
0*"
1#!
0k
0`
0~
0!!
1Y
1."
1%!
0$!
#395000
0!
0V
0W
1:
#397500
1!
1V
1W
0:
0"!
1+"
0#!
1_
0X
1`
0Y
1a
#400000
0!
0V
0W
1:
#402500
1!
1V
1W
0:
1*"
0+"
1k
0b
0`
0_
1X
1~
1c
0a
1b
1`
1Y
1!!
0Y
0c
#405000
0!
0V
0W
1:
#407500
1!
1V
1W
0:
1"!
0*"
1#!
0k
0`
0~
0!!
1Y
1-"
0."
1$!
#410000
0!
0V
0W
1:
#412500
1!
1V
1W
0:
0"!
1+"
0#!
1_
0X
1`
0Y
1a
#415000
0!
0V
0W
1:
#417500
1!
1V
1W
0:
1*"
0+"
1k
0b
0`
0_
1X
1~
1c
0a
1b
1`
1Y
1!!
0Y
0c
#420000
0!
0V
0W
1:
#422500
1!
1V
1W
0:
1"!
0*"
1#!
0k
0`
0~
0!!
1Y
1."
1&!
0%!
0$!
#425000
0!
0V
0W
1:
#427500
1!
1V
1W
0:
0"!
1+"
0#!
1_
0X
1`
0Y
1a
#430000
0!
0V
0W
1:
#432500
1!
1V
1W
0:
1*"
0+"
1k
0b
0`
0_
1X
1~
1c
0a
1b
1`
1Y
1!!
0Y
0c
#435000
0!
0V
0W
1:
#437500
1!
1V
1W
0:
1"!
0*"
1#!
0k
0`
0~
0!!
1Y
1,"
0-"
0."
1'!
1$!
#440000
0!
0V
0W
1:
#442500
1!
1V
1W
0:
1)!
0"!
1+"
0#!
1+!
1_
0X
1,!
1`
0Y
1a
1.!
1V!
0T!
0R!
0F!
10!
0/!
0-!
1F
10
0H!
02!
01!
0M!
13!
#445000
0!
0V
0W
1:
#447500
1!
1V
1W
0:
1*!
0N!
1*"
0+"
0+!
1k
0b
0`
0_
1X
1C
0,!
1%
1~
1c
0a
1b
1`
1Y
1!!
0Y
0c
#450000
0!
0V
0W
1:
#452500
1!
1V
1W
0:
1"!
0*"
1#!
0k
0`
0~
0!!
1Y
1."
1%!
0$!
#455000
0!
0V
0W
1:
#457500
1!
1V
1W
0:
0"!
1+"
0#!
1_
0X
1`
0Y
1a
#460000
0!
0V
0W
1:
#462500
1!
1V
1W
0:
1*"
0+"
1k
0b
0`
0_
1X
1~
1c
0a
1b
1`
1Y
1!!
0Y
0c
#465000
0!
0V
0W
1:
#467500
1!
1V
1W
0:
1"!
0*"
1#!
0k
0`
0~
0!!
1Y
1-"
0."
1$!
#470000
0!
0V
0W
1:
#472500
1!
1V
1W
0:
0"!
1+"
0#!
1_
0X
1`
0Y
1a
#475000
0!
0V
0W
1:
#477500
1!
1V
1W
0:
1*"
0+"
1k
0b
0`
0_
1X
1~
1c
0a
1b
1`
1Y
1!!
0Y
0c
#480000
0!
0V
0W
1:
#482500
1!
1V
1W
0:
1"!
0*"
1#!
0k
0`
0~
0!!
1Y
1."
0&!
0%!
0$!
#485000
0!
0V
0W
1:
#487500
1!
1V
1W
0:
0"!
1+"
0#!
1_
0X
1`
0Y
1a
#490000
0!
0V
0W
1:
#492500
1!
1V
1W
0:
1*"
0+"
1k
0b
0`
0_
1X
1~
1c
0a
1b
1`
1Y
1!!
0Y
0c
#495000
0!
0V
0W
1:
#497500
1!
1V
1W
0:
1"!
0*"
1#!
0k
0`
0~
0!!
1Y
0,"
0-"
0."
0'!
1$!
#500000
0!
0V
0W
1:
#502500
1!
1V
1W
0:
0)!
0"!
1+"
0#!
1+!
1_
0X
1,!
1`
0Y
1a
18"
09"
0:"
1W!
0U!
0S!
0.!
14!
03!
12!
11!
00!
1F!
1-!
1I
0G
0H
0F
1-
0/
0.
00
15!
04!
13!
01!
1H!
05!
1I!
#505000
0!
0V
0W
1:
#507500
1!
1V
1W
0:
0*!
1J!
1*"
0+"
0+!
1k
0b
0`
0_
1X
0A
0,!
0'
1~
1c
0a
1b
1`
1Y
1!!
0Y
0c
#510000
0!
0V
0W
1:
#512500
1!
1V
1W
0:
1"!
0*"
1#!
0k
0`
0~
0!!
1Y
1."
1%!
0$!
#515000
0!
0V
0W
1:
#517500
1!
1V
1W
0:
0"!
1+"
0#!
1_
0X
1`
0Y
1a
#520000
0!
0V
0W
1:
#522500
1!
1V
1W
0:
1*"
0+"
1k
0b
0`
0_
1X
1~
1c
0a
1b
1`
1Y
1!!
0Y
0c
#525000
0!
0V
0W
1:
#527500
1!
1V
1W
0:
1"!
0*"
1#!
0k
0`
0~
0!!
1Y
1-"
0."
1$!
#530000
0!
0V
0W
1:
#532500
1!
1V
1W
0:
0"!
1+"
0#!
1_
0X
1`
0Y
1a
#535000
0!
0V
0W
1:
#537500
1!
1V
1W
0:
1*"
0+"
1k
0b
0`
0_
1X
1~
1c
0a
1b
1`
1Y
1!!
0Y
0c
#540000
0!
0V
0W
1:
#542500
1!
1V
1W
0:
1"!
0*"
1#!
0k
0`
0~
0!!
1Y
1."
1&!
0%!
0$!
#545000
0!
0V
0W
1:
#547500
1!
1V
1W
0:
0"!
1+"
0#!
1_
0X
1`
0Y
1a
#550000
0!
0V
0W
1:
#552500
1!
1V
1W
0:
1*"
0+"
1k
0b
0`
0_
1X
1~
1c
0a
1b
1`
1Y
1!!
0Y
0c
#555000
0!
0V
0W
1:
#557500
1!
1V
1W
0:
1"!
0*"
1#!
0k
0`
0~
0!!
1Y
1,"
0-"
0."
1'!
1$!
#560000
0!
0V
0W
1:
#562500
1!
1V
1W
0:
1)!
0"!
1+"
0#!
1+!
1_
0X
1,!
1`
0Y
1a
1.!
1X!
0V!
0F!
1/!
0-!
1F
10
0H!
0I!
#565000
0!
0V
0W
1:
