Washing_Machine_FPGA/Blocks_PRO_MAX/Breathing_LED/simulation/qsim/Breathing_LED.msim.vcd
$comment
	File created using the following command:
		vcd file Breathing_LED.msim.vcd -direction
$end
$date
	Thu Jan 13 01:00:35 2022
$end
$version
	ModelSim Version 10.1d
$end
$timescale
	1ps
$end
$scope module Breathing_LED_vlg_vec_tst $end
$var reg 1 ! clk $end
$var reg 1 " clr $end
$var reg 1 # led_en $end
$var reg 1 $ rst $end
$var wire 1 % led_out $end
$var wire 1 & sampler $end
$scope module i1 $end
$var wire 1 ' gnd $end
$var wire 1 ( vcc $end
$var wire 1 ) unknown $end
$var tri1 1 * devclrn $end
$var tri1 1 + devpor $end
$var tri1 1 , devoe $end
$var wire 1 - led_out~output_o $end
$var wire 1 . clk~input_o $end
$var wire 1 / clk~inputclkctrl_outclk $end
$var wire 1 0 Add1~0_combout $end
$var wire 1 1 Add0~0_combout $end
$var wire 1 2 clr~input_o $end
$var wire 1 3 rst~input_o $end
$var wire 1 4 cnt_1200ms[8]~0_combout $end
$var wire 1 5 cnt_1200ms[8]~0clkctrl_outclk $end
$var wire 1 6 Add0~1 $end
$var wire 1 7 Add0~2_combout $end
$var wire 1 8 cnt_90posclk~1_combout $end
$var wire 1 9 Add0~3 $end
$var wire 1 : Add0~4_combout $end
$var wire 1 ; Add0~5 $end
$var wire 1 < Add0~6_combout $end
$var wire 1 = cnt_90posclk~0_combout $end
$var wire 1 > Add0~7 $end
$var wire 1 ? Add0~8_combout $end
$var wire 1 @ Add0~9 $end
$var wire 1 A Add0~10_combout $end
$var wire 1 B Add0~11 $end
$var wire 1 C Add0~12_combout $end
$var wire 1 D Equal0~0_combout $end
$var wire 1 E Equal0~1_combout $end
$var wire 1 F cnt_3ms[0]~8_combout $end
$var wire 1 G Add1~1 $end
$var wire 1 H Add1~2_combout $end
$var wire 1 I cnt_3ms[1]~7_combout $end
$var wire 1 J Add1~3 $end
$var wire 1 K Add1~4_combout $end
$var wire 1 L cnt_3ms[2]~6_combout $end
$var wire 1 M Add1~5 $end
$var wire 1 N Add1~6_combout $end
$var wire 1 O cnt_3ms[3]~5_combout $end
$var wire 1 P Add1~7 $end
$var wire 1 Q Add1~8_combout $end
$var wire 1 R cnt_3ms[4]~4_combout $end
$var wire 1 S Add1~9 $end
$var wire 1 T Add1~10_combout $end
$var wire 1 U cnt_3ms[5]~3_combout $end
$var wire 1 V Equal1~1_combout $end
$var wire 1 W Add1~11 $end
$var wire 1 X Add1~12_combout $end
$var wire 1 Y cnt_3ms[6]~2_combout $end
$var wire 1 Z Add1~13 $end
$var wire 1 [ Add1~14_combout $end
$var wire 1 \ cnt_3ms[7]~1_combout $end
$var wire 1 ] Add1~15 $end
$var wire 1 ^ Add1~16_combout $end
$var wire 1 _ cnt_3ms[8]~0_combout $end
$var wire 1 ` Equal1~0_combout $end
$var wire 1 a Equal1~2_combout $end
$var wire 1 b Add1~17 $end
$var wire 1 c Add1~18_combout $end
$var wire 1 d cnt_3ms[9]~9_combout $end
$var wire 1 e Add2~7 $end
$var wire 1 f Add2~8_combout $end
$var wire 1 g cnt_1200ms[4]~7_combout $end
$var wire 1 h Add2~9 $end
$var wire 1 i Add2~10_combout $end
$var wire 1 j cnt_1200ms[5]~6_combout $end
$var wire 1 k Add2~11 $end
$var wire 1 l Add2~12_combout $end
$var wire 1 m cnt_1200ms[6]~5_combout $end
$var wire 1 n Add2~13 $end
$var wire 1 o Add2~14_combout $end
$var wire 1 p cnt_1200ms[7]~4_combout $end
$var wire 1 q Equal2~0_combout $end
$var wire 1 r cnt_1200ms[8]~1_combout $end
$var wire 1 s Add2~0_combout $end
$var wire 1 t cnt_1200ms[0]~11_combout $end
$var wire 1 u Add2~1 $end
$var wire 1 v Add2~2_combout $end
$var wire 1 w cnt_1200ms[1]~10_combout $end
$var wire 1 x Add2~3 $end
$var wire 1 y Add2~4_combout $end
$var wire 1 z cnt_1200ms[2]~9_combout $end
$var wire 1 { Add2~5 $end
$var wire 1 | Add2~6_combout $end
$var wire 1 } cnt_1200ms[3]~8_combout $end
$var wire 1 ~ Equal2~1_combout $end
$var wire 1 !! cnt_1200ms[0]~2_combout $end
$var wire 1 "! Add2~15 $end
$var wire 1 #! Add2~16_combout $end
$var wire 1 $! cnt_1200ms[8]~3_combout $end
$var wire 1 %! LessThan1~1_cout $end
$var wire 1 &! LessThan1~3_cout $end
$var wire 1 '! LessThan1~5_cout $end
$var wire 1 (! LessThan1~7_cout $end
$var wire 1 )! LessThan1~9_cout $end
$var wire 1 *! LessThan1~11_cout $end
$var wire 1 +! LessThan1~13_cout $end
$var wire 1 ,! LessThan1~15_cout $end
$var wire 1 -! LessThan1~16_combout $end
$var wire 1 .! cnt_1200ms_en~0_combout $end
$var wire 1 /! cnt_1200ms_en~q $end
$var wire 1 0! LessThan0~1_cout $end
$var wire 1 1! LessThan0~3_cout $end
$var wire 1 2! LessThan0~5_cout $end
$var wire 1 3! LessThan0~7_cout $end
$var wire 1 4! LessThan0~9_cout $end
$var wire 1 5! LessThan0~11_cout $end
$var wire 1 6! LessThan0~13_cout $end
$var wire 1 7! LessThan0~15_cout $end
$var wire 1 8! LessThan0~16_combout $end
$var wire 1 9! always4~0_combout $end
$var wire 1 :! led~q $end
$var wire 1 ;! led_en~input_o $end
$var wire 1 <! led_out~0_combout $end
$var wire 1 =! cnt_90posclk [6] $end
$var wire 1 >! cnt_90posclk [5] $end
$var wire 1 ?! cnt_90posclk [4] $end
$var wire 1 @! cnt_90posclk [3] $end
$var wire 1 A! cnt_90posclk [2] $end
$var wire 1 B! cnt_90posclk [1] $end
$var wire 1 C! cnt_90posclk [0] $end
$var wire 1 D! cnt_3ms [9] $end
$var wire 1 E! cnt_3ms [8] $end
$var wire 1 F! cnt_3ms [7] $end
$var wire 1 G! cnt_3ms [6] $end
$var wire 1 H! cnt_3ms [5] $end
$var wire 1 I! cnt_3ms [4] $end
$var wire 1 J! cnt_3ms [3] $end
$var wire 1 K! cnt_3ms [2] $end
$var wire 1 L! cnt_3ms [1] $end
$var wire 1 M! cnt_3ms [0] $end
$var wire 1 N! cnt_1200ms [8] $end
$var wire 1 O! cnt_1200ms [7] $end
$var wire 1 P! cnt_1200ms [6] $end
$var wire 1 Q! cnt_1200ms [5] $end
$var wire 1 R! cnt_1200ms [4] $end
$var wire 1 S! cnt_1200ms [3] $end
$var wire 1 T! cnt_1200ms [2] $end
$var wire 1 U! cnt_1200ms [1] $end
$var wire 1 V! cnt_1200ms [0] $end
$upscope $end
$upscope $end
$enddefinitions $end
#0
$dumpvars
0!
1"
1#
1$
1%
x&
0'
1(
x)
1*
1+
1,
1-
0.
0/
10
11
12
13
04
05
06
07
08
19
0:
0;
0<
0=
1>
0?
0@
0A
1B
0C
1D
1E
0F
0G
0H
0I
1J
0K
0L
0M
0N
0O
1P
0Q
0R
0S
0T
0U
1V
1W
0X
0Y
0Z
0[
0\
1]
0^
0_
0`
1a
0b
0c
0d
1e
0f
0g
0h
0i
0j
1k
0l
0m
0n
0o
0p
1q
1r
1s
0t
0u
0v
0w
1x
0y
0z
0{
0|
0}
0~
1!!
1"!
0#!
0$!
0%!
1&!
0'!
1(!
0)!
1*!
0+!
1,!
0-!
0.!
0/!
00!
11!
02!
13!
04!
15!
06!
17!
08!
19!
0:!
1;!
1<!
0C!
0B!
0A!
0@!
0?!
0>!
0=!
0M!
0L!
0K!
0J!
0I!
0H!
0G!
0F!
0E!
0D!
0V!
0U!
0T!
0S!
0R!
0Q!
0P!
0O!
0N!
$end
#500
1!
1.
1/
0&
1:!
1C!
16
01
17
18
#1000
0!
0.
0/
1&
#1500
1!
1.
1/
0&
1B!
0C!
09
07
06
11
1:
08
19
17
0:
18
#2000
0!
0.
0/
1&
#2500
1!
1.
1/
0&
1C!
16
01
09
07
1:
08
#3000
0!
0.
0/
1&
#3500
1!
1.
1/
0&
1A!
0B!
0C!
1;
0:
19
17
06
11
1<
0;
1:
18
07
1=
0<
08
0=
#4000
0!
0.
0/
1&
#4500
1!
1.
1/
0&
1C!
16
01
17
18
#5000
0!
0.
0/
1&
#5500
1!
1.
1/
0&
1B!
0C!
09
07
06
11
1;
0:
08
19
17
1<
0;
1:
18
1=
0<
0=
#6000
0!
0.
0/
1&
#6500
1!
1.
1/
0&
1C!
16
01
09
07
1;
0:
08
1<
1=
#7000
0!
0.
0/
1&
#7500
1!
1.
1/
0&
1@!
0A!
0B!
0C!
0D
0>
0<
0;
1:
19
17
06
11
1?
0=
1>
1<
0:
18
07
0?
1=
08
#8000
0!
0.
0/
1&
#8500
1!
1.
1/
0&
1C!
0E
16
01
1F
0=
18
17
08
#9000
0!
0.
0/
1&
#9500
1!
1.
1/
0&
1M!
0@!
0C!
1%!
1G
00
1D
0<
1E
06
11
0&!
1H
18
07
1'!
08
0(!
1)!
0*!
1+!
0,!
1-!
09!
#10000
0!
0.
0/
1&
#10500
1!
1.
1/
0&
0:!
1C!
16
01
17
18
#11000
0!
0.
0/
1&
#11500
1!
1.
1/
0&
1B!
0C!
09
07
06
11
1:
08
19
17
0:
18
#12000
0!
0.
0/
1&
#12500
1!
1.
1/
0&
1C!
16
01
09
07
1:
08
#13000
0!
0.
0/
1&
#13500
1!
1.
1/
0&
1A!
0B!
0C!
1;
0:
19
17
06
11
1<
0;
1:
18
07
1=
0<
08
0=
#14000
0!
0.
0/
1&
#14500
1!
1.
1/
0&
1C!
16
01
17
18
#15000
0!
0.
0/
1&
#15500
1!
1.
1/
0&
1B!
0C!
09
07
06
11
1;
0:
08
19
17
1<
0;
1:
18
1=
0<
0=
#16000
0!
0.
0/
1&
#16500
1!
1.
1/
0&
1C!
16
01
09
07
1;
0:
08
1<
1=
#17000
0!
0.
0/
1&
#17500
1!
1.
1/
0&
1@!
0A!
0B!
0C!
0D
0>
0<
0;
1:
19
17
06
11
1?
0=
1>
1<
0:
18
07
0?
1=
08
#18000
0!
0.
0/
1&
#18500
1!
1.
1/
0&
1C!
0E
16
01
1I
0F
0=
18
17
08
#19000
0!
0.
0/
1&
#19500
1!
1.
1/
0&
1L!
0M!
0@!
0C!
0J
0H
0%!
0G
10
1D
0<
1E
06
11
1K
1J
1H
18
07
0K
08
#20000
0$
0!
03
0.
0/
1&
14
15
0L!
1&!
0I
0H
0'!
1(!
0)!
1*!
0+!
1,!
0-!
19!
#20500
1!
1.
1/
0&
#21000
0!
0.
0/
1&
#21500
1!
1.
1/
0&
#22000
0!
0.
0/
1&
#22500
1!
1.
1/
0&
#23000
0!
0.
0/
1&
#23500
1!
1.
1/
0&
#24000
0!
0.
0/
1&
#24500
1!
1.
1/
0&
#25000
0!
0.
0/
1&
#25500
1!
1.
1/
0&
#26000
0!
0.
0/
1&
#26500
1!
1.
1/
0&
#27000
0!
0.
0/
1&
#27500
1!
1.
1/
0&
#28000
0!
0.
0/
1&
#28500
1!
1.
1/
0&
#29000
0!
0.
0/
1&
#29500
1!
1.
1/
0&
#30000
0!
0.
0/
1&
#30500
1!
1.
1/
0&
#31000
0!
0.
0/
1&
#31500
1!
1.
1/
0&
#32000
0!
0.
0/
1&
#32500
1!
1.
1/
0&
#33000
0!
0.
0/
1&
#33500
1!
1.
1/
0&
#34000
0!
0.
0/
1&
#34500
1!
1.
1/
0&
#35000
0!
0.
0/
1&
#35500
1!
1.
1/
0&
#36000
0!
0.
0/
1&
#36500
1!
1.
1/
0&
#37000
0!
0.
0/
1&
#37500
1!
1.
1/
0&
#38000
0!
0.
0/
1&
#38500
1!
1.
1/
0&
#39000
0!
0.
0/
1&
#39500
1!
1.
1/
0&
#40000
1$
0!
13
0.
0/
1&
04
05
#40500
1!
1.
1/
0&
1:!
1C!
16
01
17
18
#41000
0!
0.
0/
1&
#41500
1!
1.
1/
0&
1B!
0C!
09
07
06
11
1:
08
19
17
0:
18
#42000
0!
0.
0/
1&
#42500
1!
1.
1/
0&
1C!
16
01
09
07
1:
08
#43000
0!
0.
0/
1&
#43500
1!
1.
1/
0&
1A!
0B!
0C!
1;
0:
19
17
06
11
1<
0;
1:
18
07
1=
0<
08
0=
#44000
0!
0.
0/
1&
#44500
1!
1.
1/
0&
1C!
16
01
17
18
#45000
0!
0.
0/
1&
#45500
1!
1.
1/
0&
1B!
0C!
09
07
06
11
1;
0:
08
19
17
1<
0;
1:
18
1=
0<
0=
#46000
0!
0.
0/
1&
#46500
1!
1.
1/
0&
1C!
16
01
09
07
1;
0:
08
1<
1=
#47000
0!
0.
0/
1&
#47500
1!
1.
1/
0&
1@!
0A!
0B!
0C!
0D
0>
0<
0;
1:
19
17
06
11
1?
0=
1>
1<
0:
18
07
0?
1=
08
#48000
0!
0.
0/
1&
#48500
1!
1.
1/
0&
1C!
0E
16
01
1F
0=
18
17
08
#49000
0!
0.
0/
1&
#49500
1!
1.
1/
0&
1M!
0@!
0C!
1%!
1G
00
1D
0<
1E
06
11
0&!
1H
18
07
1'!
08
0(!
1)!
0*!
1+!
0,!
1-!
09!
#50000
0!
0.
0/
1&
#50500
1!
1.
1/
0&
0:!
1C!
16
01
17
18
#51000
0!
0.
0/
1&
#51500
1!
1.
1/
0&
1B!
0C!
09
07
06
11
1:
08
19
17
0:
18
#52000
0!
0.
0/
1&
#52500
1!
1.
1/
0&
1C!
16
01
09
07
1:
08
#53000
0!
0.
0/
1&
#53500
1!
1.
1/
0&
1A!
0B!
0C!
1;
0:
19
17
06
11
1<
0;
1:
18
07
1=
0<
08
0=
#54000
0!
0.
0/
1&
#54500
1!
1.
1/
0&
1C!
16
01
17
18
#55000
0!
0.
0/
1&
#55500
1!
1.
1/
0&
1B!
0C!
09
07
06
11
1;
0:
08
19
17
1<
0;
1:
18
1=
0<
0=
#56000
0!
0.
0/
1&
#56500
1!
1.
1/
0&
1C!
16
01
09
07
1;
0:
08
1<
1=
#57000
0!
0.
0/
1&
#57500
1!
1.
1/
0&
1@!
0A!
0B!
0C!
0D
0>
0<
0;
1:
19
17
06
11
1?
0=
1>
1<
0:
18
07
0?
1=
08
#58000
0!
0.
0/
1&
#58500
1!
1.
1/
0&
1C!
0E
16
01
1I
0F
0=
18
17
08
#59000
0!
0.
0/
1&
#59500
1!
1.
1/
0&
1L!
0M!
0@!
0C!
0J
0H
0%!
0G
10
1D
0<
1E
06
11
1K
1J
1H
18
07
0K
08
#60000
0#
0!
0;!
0.
0/
1&
#60500
1!
1.
1/
0&
1C!
16
01
17
18
#61000
0!
0.
0/
1&
#61500
1!
1.
1/
0&
1B!
0C!
09
07
06
11
1:
08
19
17
0:
18
#62000
0!
0.
0/
1&
#62500
1!
1.
1/
0&
1C!
16
01
09
07
1:
08
#63000
0!
0.
0/
1&
#63500
1!
1.
1/
0&
1A!
0B!
0C!
1;
0:
19
17
06
11
1<
0;
1:
18
07
1=
0<
08
0=
#64000
0!
0.
0/
1&
#64500
1!
1.
1/
0&
1C!
16
01
17
18
#65000
0!
0.
0/
1&
#65500
1!
1.
1/
0&
1B!
0C!
09
07
06
11
1;
0:
08
19
17
1<
0;
1:
18
1=
0<
0=
#66000
0!
0.
0/
1&
#66500
1!
1.
1/
0&
1C!
16
01
09
07
1;
0:
08
1<
1=
#67000
0!
0.
0/
1&
#67500
1!
1.
1/
0&
1@!
0A!
0B!
0C!
0D
0>
0<
0;
1:
19
17
06
11
1?
0=
1>
1<
0:
18
07
0?
1=
08
#68000
0!
0.
0/
1&
#68500
1!
1.
1/
0&
1C!
0E
16
01
1F
0=
18
17
08
#69000
0!
0.
0/
1&
#69500
1!
1.
1/
0&
1M!
0@!
0C!
1%!
1G
00
1D
0<
1E
06
11
0J
0H
18
07
1K
08
#70000
0!
0.
0/
1&
#70500
1!
1.
1/
0&
1C!
16
01
17
18
#71000
0!
0.
0/
1&
#71500
1!
1.
1/
0&
1B!
0C!
09
07
06
11
1:
08
19
17
0:
18
#72000
0!
0.
0/
1&
#72500
1!
1.
1/
0&
1C!
16
01
09
07
1:
08
#73000
0!
0.
0/
1&
#73500
1!
1.
1/
0&
1A!
0B!
0C!
1;
0:
19
17
06
11
1<
0;
1:
18
07
1=
0<
08
0=
#74000
0!
0.
0/
1&
#74500
1!
1.
1/
0&
1C!
16
01
17
18
#75000
0!
0.
0/
1&
#75500
1!
1.
1/
0&
1B!
0C!
09
07
06
11
1;
0:
08
19
17
1<
0;
1:
18
1=
0<
0=
#76000
0!
0.
0/
1&
#76500
1!
1.
1/
0&
1C!
16
01
09
07
1;
0:
08
1<
1=
#77000
0!
0.
0/
1&
#77500
1!
1.
1/
0&
1@!
0A!
0B!
0C!
0D
0>
0<
0;
1:
19
17
06
11
1?
0=
1>
1<
0:
18
07
0?
1=
08
#78000
0!
0.
0/
1&
#78500
1!
1.
1/
0&
1C!
0E
16
01
1L
0I
0F
0=
18
17
08
#79000
0!
0.
0/
1&
#79500
1!
1.
1/
0&
1K!
0L!
0M!
0@!
0C!
1M
0K
1J
1H
0%!
0G
10
1D
0<
1E
06
11
1N
0M
1K
1&!
0H
18
07
0N
08
#80000
0!
0.
0/
1&
#80500
1!
1.
1/
0&
1C!
16
01
17
18
#81000
0!
0.
0/
1&
#81500
1!
1.
1/
0&
1B!
0C!
09
07
06
11
1:
08
19
17
0:
18
#82000
0!
0.
0/
1&
#82500
1!
1.
1/
0&
1C!
16
01
09
07
1:
08
#83000
0!
0.
0/
1&
#83500
1!
1.
1/
0&
1A!
0B!
0C!
1;
0:
19
17
06
11
1<
0;
1:
18
07
1=
0<
08
0=
#84000
0!
0.
0/
1&
#84500
1!
1.
1/
0&
1C!
16
01
17
18
#85000
0!
0.
0/
1&
#85500
1!
1.
1/
0&
1B!
0C!
09
07
06
11
1;
0:
08
19
17
1<
0;
1:
18
1=
0<
0=
#86000
0!
0.
0/
1&
#86500
1!
1.
1/
0&
1C!
16
01
09
07
1;
0:
08
1<
1=
#87000
0!
0.
0/
1&
#87500
1!
1.
1/
0&
1@!
0A!
0B!
0C!
0D
0>
0<
0;
1:
19
17
06
11
1?
0=
1>
1<
0:
18
07
0?
1=
08
#88000
0!
0.
0/
1&
#88500
1!
1.
1/
0&
1C!
0E
16
01
1F
0=
18
17
08
#89000
0!
0.
0/
1&
#89500
1!
1.
1/
0&
1M!
0@!
0C!
1%!
1G
00
1D
0<
1E
06
11
0&!
1H
18
07
08
#90000
0!
0.
0/
1&
#90500
1!
1.
1/
0&
1C!
16
01
17
18
#91000
0!
0.
0/
1&
#91500
1!
1.
1/
0&
1B!
0C!
09
07
06
11
1:
08
19
17
0:
18
#92000
0!
0.
0/
1&
#92500
1!
1.
1/
0&
1C!
16
01
09
07
1:
08
#93000
0!
0.
0/
1&
#93500
1!
1.
1/
0&
1A!
0B!
0C!
1;
0:
19
17
06
11
1<
0;
1:
18
07
1=
0<
08
0=
#94000
0!
0.
0/
1&
#94500
1!
1.
1/
0&
1C!
16
01
17
18
#95000
0!
0.
0/
1&
#95500
1!
1.
1/
0&
1B!
0C!
09
07
06
11
1;
0:
08
19
17
1<
0;
1:
18
1=
0<
0=
#96000
0!
0.
0/
1&
#96500
1!
1.
1/
0&
1C!
16
01
09
07
1;
0:
08
1<
1=
#97000
0!
0.
0/
1&
#97500
1!
1.
1/
0&
1@!
0A!
0B!
0C!
0D
0>
0<
0;
1:
19
17
06
11
1?
0=
1>
1<
0:
18
07
0?
1=
08
#98000
0!
0.
0/
1&
#98500
1!
1.
1/
0&
1C!
0E
16
01
1I
0F
0=
18
17
08
#99000
0!
0.
0/
1&
#99500
1!
1.
1/
0&
1L!
0M!
0@!
0C!
0J
0H
0%!
0G
10
1D
0<
1E
06
11
1M
0K
1J
1H
18
07
1N
0M
1K
08
0N
#100000
0!
0.
0/
1&
#100500
1!
1.
1/
0&
1C!
16
01
17
18
#101000
0!
0.
0/
1&
#101500
1!
1.
1/
0&
1B!
0C!
09
07
06
11
1:
08
19
17
0:
18
#102000
0!
0.
0/
1&
#102500
1!
1.
1/
0&
1C!
16
01
09
07
1:
08
#103000
0!
0.
0/
1&
#103500
1!
1.
1/
0&
1A!
0B!
0C!
1;
0:
19
17
06
11
1<
0;
1:
18
07
1=
0<
08
0=
#104000
0!
0.
0/
1&
#104500
1!
1.
1/
0&
1C!
16
01
17
18
#105000
0!
0.
0/
1&
#105500
1!
1.
1/
0&
1B!
0C!
09
07
06
11
1;
0:
08
19
17
1<
0;
1:
18
1=
0<
0=
#106000
0!
0.
0/
1&
#106500
1!
1.
1/
0&
1C!
16
01
09
07
1;
0:
08
1<
1=
#107000
0!
0.
0/
1&
#107500
1!
1.
1/
0&
1@!
0A!
0B!
0C!
0D
0>
0<
0;
1:
19
17
06
11
1?
0=
1>
1<
0:
18
07
0?
1=
08
#108000
0!
0.
0/
1&
#108500
1!
1.
1/
0&
1C!
0E
16
01
1F
0=
18
17
08
#109000
0!
0.
0/
1&
#109500
1!
1.
1/
0&
1M!
0@!
0C!
1%!
1G
00
1D
0<
1E
06
11
0J
0H
18
07
1M
0K
08
1N
#110000
0!
0.
0/
1&
#110500
1!
1.
1/
0&
1C!
16
01
17
18
#111000
0!
0.
0/
1&
#111500
1!
1.
1/
0&
1B!
0C!
09
07
06
11
1:
08
19
17
0:
18
#112000
0!
0.
0/
1&
#112500
1!
1.
1/
0&
1C!
16
01
09
07
1:
08
#113000
0!
0.
0/
1&
#113500
1!
1.
1/
0&
1A!
0B!
0C!
1;
0:
19
17
06
11
1<
0;
1:
18
07
1=
0<
08
0=
#114000
0!
0.
0/
1&
#114500
1!
1.
1/
0&
1C!
16
01
17
18
#115000
0!
0.
0/
1&
#115500
1!
1.
1/
0&
1B!
0C!
09
07
06
11
1;
0:
08
19
17
1<
0;
1:
18
1=
0<
0=
#116000
0!
0.
0/
1&
#116500
1!
1.
1/
0&
1C!
16
01
09
07
1;
0:
08
1<
1=
#117000
0!
0.
0/
1&
#117500
1!
1.
1/
0&
1@!
0A!
0B!
0C!
0D
0>
0<
0;
1:
19
17
06
11
1?
0=
1>
1<
0:
18
07
0?
1=
08
#118000
0!
0.
0/
1&
#118500
1!
1.
1/
0&
1C!
0E
16
01
1O
0L
0I
0F
0=
18
17
08
#119000
0!
0.
0/
1&
#119500
1!
1.
1/
0&
1J!
0K!
0L!
0M!
0@!
0C!
0V
0P
0N
0M
1K
1J
1H
0%!
0G
10
1D
0<
1E
06
11
0a
1Q
1P
1N
0K
1&!
0H
18
07
0!!
0r
0O
0Q
0'!
08
1t
#120000
0!
0.
0/
1&
#120500
1!
1.
1/
0&
1V!
0J!
1C!
10!
1u
0s
1(!
1V
0N
16
01
01!
1v
0t
0)!
1a
17
12!
1w
1*!
1!!
1r
18
03!
0+!
0w
1t
14!
1,!
05!
0-!
16!
19!
07!
18!
#121000
0!
0.
0/
1&
#121500
1!
1.
1/
0&
1:!
1B!
0C!
09
07
06
11
0<!
1:
08
19
17
0-
0%
0:
18
#122000
0!
0.
0/
1&
#122500
1!
1.
1/
0&
1C!
16
01
09
07
1:
08
#123000
0!
0.
0/
1&
#123500
1!
1.
1/
0&
1A!
0B!
0C!
1;
0:
19
17
06
11
1<
0;
1:
18
07
1=
0<
08
0=
#124000
0!
0.
0/
1&
#124500
1!
1.
1/
0&
1C!
16
01
17
18
#125000
0!
0.
0/
1&
#125500
1!
1.
1/
0&
1B!
0C!
09
07
06
11
1;
0:
08
19
17
1<
0;
1:
18
1=
0<
0=
#126000
0!
0.
0/
1&
#126500
1!
1.
1/
0&
1C!
16
01
09
07
1;
0:
08
1<
1=
#127000
0!
0.
0/
1&
#127500
1!
1.
1/
0&
1@!
0A!
0B!
0C!
0D
0>
0<
0;
1:
19
17
06
11
1?
0=
1>
1<
0:
18
07
0?
1=
08
#128000
0!
0.
0/
1&
#128500
1!
1.
1/
0&
1C!
0E
16
01
1F
0=
18
17
08
#129000
0!
0.
0/
1&
#129500
1!
1.
1/
0&
1M!
0@!
0C!
00!
1G
00
1D
0<
1E
06
11
11!
1H
18
07
02!
08
13!
04!
15!
06!
17!
08!
#130000
0!
0.
0/
1&
#130500
1!
1.
1/
0&
1C!
16
01
17
18
#131000
0!
0.
0/
1&
#131500
1!
1.
1/
0&
1B!
0C!
09
07
06
11
1:
08
19
17
0:
18
#132000
0!
0.
0/
1&
#132500
1!
1.
1/
0&
1C!
16
01
09
07
1:
08
#133000
0!
0.
0/
1&
#133500
1!
1.
1/
0&
1A!
0B!
0C!
1;
0:
19
17
06
11
1<
0;
1:
18
07
1=
0<
08
0=
#134000
0!
0.
0/
1&
#134500
1!
1.
1/
0&
1C!
16
01
17
18
#135000
0!
0.
0/
1&
#135500
1!
1.
1/
0&
1B!
0C!
09
07
06
11
1;
0:
08
19
17
1<
0;
1:
18
1=
0<
0=
#136000
0!
0.
0/
1&
#136500
1!
1.
1/
0&
1C!
16
01
09
07
1;
0:
08
1<
1=
#137000
0!
0.
0/
1&
#137500
1!
1.
1/
0&
1@!
0A!
0B!
0C!
0D
0>
0<
0;
1:
19
17
06
11
1?
0=
1>
1<
0:
18
07
0?
1=
08
#138000
0!
0.
0/
1&
#138500
1!
1.
1/
0&
1C!
0E
16
01
1I
0F
0=
18
17
08
#139000
0!
0.
0/
1&
#139500
1!
1.
1/
0&
1L!
0M!
0@!
0C!
0&!
0J
0H
10!
0G
10
1D
0<
1E
06
11
1'!
1K
1J
1H
18
07
0(!
0K
08
1)!
0*!
1+!
0,!
1-!
09!
#140000
0!
0.
0/
1&
#140500
1!
1.
1/
0&
0:!
1C!
16
01
1<!
17
1-
1%
18
#141000
0!
0.
0/
1&
#141500
1!
1.
1/
0&
1B!
0C!
09
07
06
11
1:
08
19
17
0:
18
#142000
0!
0.
0/
1&
#142500
1!
1.
1/
0&
1C!
16
01
09
07
1:
08
#143000
0!
0.
0/
1&
#143500
1!
1.
1/
0&
1A!
0B!
0C!
1;
0:
19
17
06
11
1<
0;
1:
18
07
1=
0<
08
0=
#144000
0!
0.
0/
1&
#144500
1!
1.
1/
0&
1C!
16
01
17
18
#145000
0!
0.
0/
1&
#145500
1!
1.
1/
0&
1B!
0C!
09
07
06
11
1;
0:
08
19
17
1<
0;
1:
18
1=
0<
0=
#146000
0!
0.
0/
1&
#146500
1!
1.
1/
0&
1C!
16
01
09
07
1;
0:
08
1<
1=
#147000
0!
0.
0/
1&
#147500
1!
1.
1/
0&
1@!
0A!
0B!
0C!
0D
0>
0<
0;
1:
19
17
06
11
1?
0=
1>
1<
0:
18
07
0?
1=
08
#148000
0!
0.
0/
1&
#148500
1!
1.
1/
0&
1C!
0E
16
01
1F
0=
18
17
08
#149000
0!
0.
0/
1&
#149500
1!
1.
1/
0&
1M!
0@!
0C!
00!
1G
00
1D
0<
1E
06
11
0J
0H
18
07
1K
08
#150000
0!
0.
0/
1&
#150500
1!
1.
1/
0&
1C!
16
01
17
18
#151000
0!
0.
0/
1&
#151500
1!
1.
1/
0&
1B!
0C!
09
07
06
11
1:
08
19
17
0:
18
#152000
0!
0.
0/
1&
#152500
1!
1.
1/
0&
1C!
16
01
09
07
1:
08
#153000
0!
0.
0/
1&
#153500
1!
1.
1/
0&
1A!
0B!
0C!
1;
0:
19
17
06
11
1<
0;
1:
18
07
1=
0<
08
0=
#154000
0!
0.
0/
1&
#154500
1!
1.
1/
0&
1C!
16
01
17
18
#155000
0!
0.
0/
1&
#155500
1!
1.
1/
0&
1B!
0C!
09
07
06
11
1;
0:
08
19
17
1<
0;
1:
18
1=
0<
0=
#156000
0!
0.
0/
1&
#156500
1!
1.
1/
0&
1C!
16
01
09
07
1;
0:
08
1<
1=
#157000
0!
0.
0/
1&
#157500
1!
1.
1/
0&
1@!
0A!
0B!
0C!
0D
0>
0<
0;
1:
19
17
06
11
1?
0=
1>
1<
0:
18
07
0?
1=
08
#158000
0!
0.
0/
1&
#158500
1!
1.
1/
0&
1C!
0E
16
01
1L
0I
0F
0=
18
17
08
#159000
0!
0.
0/
1&
#159500
1!
1.
1/
0&
1K!
0L!
0M!
0@!
0C!
1M
0K
1&!
1J
1H
10!
0G
10
1D
0<
1E
06
11
1N
0M
1K
01!
0H
18
07
0N
08
#160000
0!
0.
0/
1&
#160500
1!
1.
1/
0&
1C!
16
01
17
18
#161000
0!
0.
0/
1&
#161500
1!
1.
1/
0&
1B!
0C!
09
07
06
11
1:
08
19
17
0:
18
#162000
0!
0.
0/
1&
#162500
1!
1.
1/
0&
1C!
16
01
09
07
1:
08
#163000
0!
0.
0/
1&
#163500
1!
1.
1/
0&
1A!
0B!
0C!
1;
0:
19
17
06
11
1<
0;
1:
18
07
1=
0<
08
0=
#164000
0!
0.
0/
1&
#164500
1!
1.
1/
0&
1C!
16
01
17
18
#165000
0!
0.
0/
1&
#165500
1!
1.
1/
0&
1B!
0C!
09
07
06
11
1;
0:
08
19
17
1<
0;
1:
18
1=
0<
0=
#166000
0!
0.
0/
1&
#166500
1!
1.
1/
0&
1C!
16
01
09
07
1;
0:
08
1<
1=
#167000
0!
0.
0/
1&
#167500
1!
1.
1/
0&
1@!
0A!
0B!
0C!
0D
0>
0<
0;
1:
19
17
06
11
1?
0=
1>
1<
0:
18
07
0?
1=
08
#168000
0!
0.
0/
1&
#168500
1!
1.
1/
0&
1C!
0E
16
01
1F
0=
18
17
08
#169000
0!
0.
0/
1&
#169500
1!
1.
1/
0&
1M!
0@!
0C!
00!
1G
00
1D
0<
1E
06
11
11!
1H
18
07
08
#170000
0!
0.
0/
1&
#170500
1!
1.
1/
0&
1C!
16
01
17
18
#171000
0!
0.
0/
1&
#171500
1!
1.
1/
0&
1B!
0C!
09
07
06
11
1:
08
19
17
0:
18
#172000
0!
0.
0/
1&
#172500
1!
1.
1/
0&
1C!
16
01
09
07
1:
08
#173000
0!
0.
0/
1&
